On 1/18/2017 7:35:24 PM,
Message: ---INSIDE PAGE LOAD OF MAERSK SSO LOGIN--- 
-------------------------------------------------------------------------------
On 1/18/2017 7:35:27 PM,
Message: ---INSIDE SETUPREQUEST  MAERSK SSO LOGIN PAGE--- 
-------------------------------------------------------------------------------
On 1/18/2017 7:35:31 PM,
Message: ---INSIDE SETUPREQUEST  POWERWEAVE USER--- 
-------------------------------------------------------------------------------
On 1/18/2017 7:35:48 PM,
Message: tenantid : 05d75c05-fa1a-42e7-9cf1-eb416c396f2d
-------------------------------------------------------------------------------
On 1/18/2017 7:35:48 PM,
Message: objectidentifier : 7b1193e7-ac08-4a9e-aa6d-76e5349196ee
-------------------------------------------------------------------------------
On 1/18/2017 7:35:48 PM,
Message: displayname : ShriGanesh Singh
-------------------------------------------------------------------------------
On 1/18/2017 7:35:48 PM,
Message: identityprovider : https://sts.windows.net/05d75c05-fa1a-42e7-9cf1-eb416c396f2d/
-------------------------------------------------------------------------------
On 1/18/2017 7:35:48 PM,
Message: givenname : ShriGanesh
-------------------------------------------------------------------------------
On 1/18/2017 7:35:48 PM,
Message: surname : Singh
-------------------------------------------------------------------------------
On 1/18/2017 7:35:48 PM,
Message: emailaddress : ShriGanesh.singh@powerweave.com
-------------------------------------------------------------------------------
On 1/18/2017 7:35:48 PM,
Message: name : ShriGanesh.singh@powerweave.com
-------------------------------------------------------------------------------
On 1/18/2017 7:35:48 PM,
Message: locality : Maidenhead
-------------------------------------------------------------------------------
On 1/18/2017 7:35:48 PM,
Message: countrycode : GB
-------------------------------------------------------------------------------
On 1/18/2017 7:35:48 PM,
Message: jobtitle : Cloud Identity Service Owner
-------------------------------------------------------------------------------
On 1/18/2017 7:35:48 PM,
Message: postalcode : SL6 8AA
-------------------------------------------------------------------------------
On 1/18/2017 7:35:48 PM,
Message: streetaddress : 27 Market Street
-------------------------------------------------------------------------------
On 1/18/2017 7:35:48 PM,
Message: employeeid : WOW001
-------------------------------------------------------------------------------
On 1/18/2017 7:35:48 PM,
Message: businessunitname : Maersk Group Infrastructure Services
-------------------------------------------------------------------------------
On 1/18/2017 7:35:48 PM,
Message: CostCentre : GBMDN02
-------------------------------------------------------------------------------
On 1/18/2017 7:35:48 PM,
Message: contractingcompany : Maersk Line UK Ltd.
-------------------------------------------------------------------------------
On 1/18/2017 7:36:08 PM,
Message: ---INSIDE PAGE LOAD OF MAERSK SSO LOGIN--- 
-------------------------------------------------------------------------------
On 1/18/2017 7:36:10 PM,
Message: ---INSIDE SETUPREQUEST  MAERSK SSO LOGIN PAGE--- 
-------------------------------------------------------------------------------
On 1/18/2017 7:36:27 PM,
Message: ---INSIDE SETUPREQUEST  POWERWEAVE USER--- 
-------------------------------------------------------------------------------
On 1/18/2017 7:36:27 PM,
Message: tenantid : 05d75c05-fa1a-42e7-9cf1-eb416c396f2d
-------------------------------------------------------------------------------
On 1/18/2017 7:36:27 PM,
Message: objectidentifier : 7b1193e7-ac08-4a9e-aa6d-76e5349196ee
-------------------------------------------------------------------------------
On 1/18/2017 7:36:27 PM,
Message: displayname : ShriGanesh Singh
-------------------------------------------------------------------------------
On 1/18/2017 7:36:27 PM,
Message: identityprovider : https://sts.windows.net/05d75c05-fa1a-42e7-9cf1-eb416c396f2d/
-------------------------------------------------------------------------------
On 1/18/2017 7:36:27 PM,
Message: givenname : ShriGanesh
-------------------------------------------------------------------------------
On 1/18/2017 7:36:27 PM,
Message: surname : Singh
-------------------------------------------------------------------------------
On 1/18/2017 7:36:27 PM,
Message: emailaddress : ShriGanesh.singh@powerweave.com
-------------------------------------------------------------------------------
On 1/18/2017 7:36:27 PM,
Message: name : ShriGanesh.singh@powerweave.com
-------------------------------------------------------------------------------
On 1/18/2017 7:36:27 PM,
Message: locality : Maidenhead
-------------------------------------------------------------------------------
On 1/18/2017 7:36:27 PM,
Message: countrycode : GB
-------------------------------------------------------------------------------
On 1/18/2017 7:36:27 PM,
Message: jobtitle : Cloud Identity Service Owner
-------------------------------------------------------------------------------
On 1/18/2017 7:36:27 PM,
Message: postalcode : SL6 8AA
-------------------------------------------------------------------------------
On 1/18/2017 7:36:27 PM,
Message: streetaddress : 27 Market Street
-------------------------------------------------------------------------------
On 1/18/2017 7:36:27 PM,
Message: employeeid : WOW001
-------------------------------------------------------------------------------
On 1/18/2017 7:36:27 PM,
Message: businessunitname : Maersk Group Infrastructure Services
-------------------------------------------------------------------------------
On 1/18/2017 7:36:27 PM,
Message: CostCentre : GBMDN02
-------------------------------------------------------------------------------
On 1/18/2017 7:36:27 PM,
Message: contractingcompany : Maersk Line UK Ltd.
-------------------------------------------------------------------------------
On 1/18/2017 7:42:31 PM,
Message: ---INSIDE PAGE LOAD OF MAERSK SSO LOGIN--- 
-------------------------------------------------------------------------------
On 1/18/2017 7:42:33 PM,
Message: ---INSIDE SETUPREQUEST  MAERSK SSO LOGIN PAGE--- 
-------------------------------------------------------------------------------
On 1/18/2017 7:42:37 PM,
Message: ---INSIDE SETUPREQUEST  POWERWEAVE USER--- 
-------------------------------------------------------------------------------
On 1/18/2017 7:42:40 PM,
Message: tenantid : 05d75c05-fa1a-42e7-9cf1-eb416c396f2d
-------------------------------------------------------------------------------
On 1/18/2017 7:42:50 PM,
Message: objectidentifier : 7b1193e7-ac08-4a9e-aa6d-76e5349196ee
-------------------------------------------------------------------------------
On 1/18/2017 7:42:50 PM,
Message: displayname : ShriGanesh Singh
-------------------------------------------------------------------------------
On 1/18/2017 7:42:50 PM,
Message: identityprovider : https://sts.windows.net/05d75c05-fa1a-42e7-9cf1-eb416c396f2d/
-------------------------------------------------------------------------------
On 1/18/2017 7:42:50 PM,
Message: givenname : ShriGanesh
-------------------------------------------------------------------------------
On 1/18/2017 7:42:50 PM,
Message: surname : Singh
-------------------------------------------------------------------------------
On 1/18/2017 7:42:50 PM,
Message: emailaddress : ShriGanesh.singh@powerweave.com
-------------------------------------------------------------------------------
On 1/18/2017 7:42:50 PM,
Message: name : ShriGanesh.singh@powerweave.com
-------------------------------------------------------------------------------
On 1/18/2017 7:42:50 PM,
Message: locality : Maidenhead
-------------------------------------------------------------------------------
On 1/18/2017 7:42:50 PM,
Message: countrycode : GB
-------------------------------------------------------------------------------
On 1/18/2017 7:42:50 PM,
Message: jobtitle : Cloud Identity Service Owner
-------------------------------------------------------------------------------
On 1/18/2017 7:42:50 PM,
Message: postalcode : SL6 8AA
-------------------------------------------------------------------------------
On 1/18/2017 7:42:50 PM,
Message: streetaddress : 27 Market Street
-------------------------------------------------------------------------------
On 1/18/2017 7:42:50 PM,
Message: employeeid : WOW001
-------------------------------------------------------------------------------
On 1/18/2017 7:42:50 PM,
Message: businessunitname : Maersk Group Infrastructure Services
-------------------------------------------------------------------------------
On 1/18/2017 7:42:50 PM,
Message: CostCentre : GBMDN02
-------------------------------------------------------------------------------
On 1/18/2017 7:42:50 PM,
Message: contractingcompany : Maersk Line UK Ltd.
-------------------------------------------------------------------------------
On 1/18/2017 7:43:26 PM,
Message: Before calling Login_UserLogin.UpdateBasketSessionProducts() in SetUpRequest
-------------------------------------------------------------------------------
On 1/18/2017 7:43:26 PM,
Message: Before calling Login_UserLogin.UpdateBasketSessionProducts() in SetUpRequest
-------------------------------------------------------------------------------
On 1/18/2017 7:43:26 PM,
Message: Before redirecting to INDEX for ELSE from SetUpRequest
-------------------------------------------------------------------------------
