On 10/10/2016 5:49:27 AM,
Message: Registration:Filtering starts
-------------------------------------------------------------------------------
On 10/10/2016 5:49:27 AM,
Message: Registration:before Registeration details
-------------------------------------------------------------------------------
On 10/10/2016 5:49:36 AM,
Message: Registration:after Registeration details
-------------------------------------------------------------------------------
On 10/10/2016 5:49:36 AM,
Message: Registration:Filtering end
-------------------------------------------------------------------------------
On 10/10/2016 5:50:34 AM,
Message: Registration:Filtering starts
-------------------------------------------------------------------------------
On 10/10/2016 5:50:34 AM,
Message: Registration:before Registeration details
-------------------------------------------------------------------------------
On 10/10/2016 5:50:41 AM,
Message: Registration:after Registeration details
-------------------------------------------------------------------------------
On 10/10/2016 5:50:41 AM,
Message: Registration:Filtering end
-------------------------------------------------------------------------------
On 10/10/2016 5:50:48 AM,
Message: Payment Page Load Start
-------------------------------------------------------------------------------
On 10/10/2016 5:50:49 AM,
Message: Before calling BindResourceData()
-------------------------------------------------------------------------------
On 10/10/2016 5:50:49 AM,
Message: Inside BindResourceData()
-------------------------------------------------------------------------------
On 10/10/2016 5:50:49 AM,
Message: Inside lstStaticPageBE != null && lstStaticPageBE.Count > 0 in BindResourceData()
-------------------------------------------------------------------------------
On 10/10/2016 5:50:49 AM,
Message: Exiting BindResourceData()
-------------------------------------------------------------------------------
On 10/10/2016 5:50:49 AM,
Message: After calling BindResourceData()
-------------------------------------------------------------------------------
On 10/10/2016 5:50:49 AM,
Message: Before calling GetStoreDetails()
-------------------------------------------------------------------------------
On 10/10/2016 5:50:49 AM,
Message: After calling GetStoreDetails()
-------------------------------------------------------------------------------
On 10/10/2016 5:50:49 AM,
Message: InSide objStoreBE != null condition
-------------------------------------------------------------------------------
On 10/10/2016 5:50:49 AM,
Message: Before assigning bBackOrderAllowed
-------------------------------------------------------------------------------
On 10/10/2016 5:50:49 AM,
Message: Inside setting dvApplyCode.Visible = true
-------------------------------------------------------------------------------
On 10/10/2016 5:50:49 AM,
Message: Inside setting dvApplyGiftCertificate.Visible = true for local
-------------------------------------------------------------------------------
On 10/10/2016 5:50:49 AM,
Message: Inside setting dvApplyGiftCertificate.Visible = true
-------------------------------------------------------------------------------
On 10/10/2016 5:50:49 AM,
Message: After fetching sc_paymentgateway feature
-------------------------------------------------------------------------------
On 10/10/2016 5:50:49 AM,
Message: Inside objFeatures != null
-------------------------------------------------------------------------------
On 10/10/2016 5:50:49 AM,
Message: After fetching objLstFeatureValueBE value
-------------------------------------------------------------------------------
On 10/10/2016 5:50:49 AM,
Message: Inside objLstFeatureValueBE != null
-------------------------------------------------------------------------------
On 10/10/2016 5:50:49 AM,
Message: After fetching objFeatureValueBE value
-------------------------------------------------------------------------------
On 10/10/2016 5:50:49 AM,
Message: Before calling ShoppingCartBL.GetBasketProductsData() for GuestUser User
-------------------------------------------------------------------------------
On 10/10/2016 5:50:49 AM,
Message: After calling ShoppingCartBL.GetBasketProductsData() for GuestUser User
-------------------------------------------------------------------------------
On 10/10/2016 5:50:49 AM,
Message: Inside lstShoppingBE != null && lstShoppingBE.Count > 0 condition
-------------------------------------------------------------------------------
On 10/10/2016 5:50:49 AM,
Message: Before calling BindDeliveryAddress()
-------------------------------------------------------------------------------
On 10/10/2016 5:50:49 AM,
Message: Inside BindDeliveryAddress()
-------------------------------------------------------------------------------
On 10/10/2016 5:50:49 AM,
Message: Inside else of Session[GuestUser] == null
-------------------------------------------------------------------------------
On 10/10/2016 5:50:49 AM,
Message: Exiting BindDeliveryAddress()
-------------------------------------------------------------------------------
On 10/10/2016 5:50:49 AM,
Message: After calling BindDeliveryAddress()
-------------------------------------------------------------------------------
On 10/10/2016 5:50:49 AM,
Message: Before calling BindPaymentTypes()
-------------------------------------------------------------------------------
On 10/10/2016 5:50:49 AM,
Message: Inside BindPaymentTypes()
-------------------------------------------------------------------------------
On 10/10/2016 5:50:49 AM,
Message: After calling StoreBL.GetStoreDetails()
-------------------------------------------------------------------------------
On 10/10/2016 5:50:49 AM,
Message: After assingning objFeatures in BindPaymentTypes()
-------------------------------------------------------------------------------
On 10/10/2016 5:50:49 AM,
Message: After assingning objLstFeatureValueBE in BindPaymentTypes()
-------------------------------------------------------------------------------
On 10/10/2016 5:50:49 AM,
Message: After assingning objFeatureValueBE in BindPaymentTypes()
-------------------------------------------------------------------------------
On 10/10/2016 5:50:49 AM,
Message: Before calling ShoppingCartBL.GetAllPaymentTypesByLanguageID() in BindPaymentTypes()
-------------------------------------------------------------------------------
On 10/10/2016 5:50:49 AM,
Message: After calling ShoppingCartBL.GetAllPaymentTypesByLanguageID() in BindPaymentTypes()
-------------------------------------------------------------------------------
On 10/10/2016 5:50:49 AM,
Message: Before assingning Datasource to ddlPaymentTypes in BindPaymentTypes()
-------------------------------------------------------------------------------
On 10/10/2016 5:50:49 AM,
Message: After DataBinding ddlPaymentTypes in BindPaymentTypes()
-------------------------------------------------------------------------------
On 10/10/2016 5:50:49 AM,
Message: After calling BindPaymentTypes()
-------------------------------------------------------------------------------
On 10/10/2016 5:50:49 AM,
Message: Before calling BindCountryDropDown()
-------------------------------------------------------------------------------
On 10/10/2016 5:50:49 AM,
Message:  Inside BindCountryDropDown()
-------------------------------------------------------------------------------
On 10/10/2016 5:50:49 AM,
Message: Before assingning DataSource to ddlDCountry in BindCountryDropDown()
-------------------------------------------------------------------------------
On 10/10/2016 5:50:49 AM,
Message: Before DataBind event of ddlDCountry in BindCountryDropDown()
-------------------------------------------------------------------------------
On 10/10/2016 5:50:50 AM,
Message: Exiting BindCountryDropDown()
-------------------------------------------------------------------------------
On 10/10/2016 5:50:50 AM,
Message: After calling BindCountryDropDown()
-------------------------------------------------------------------------------
On 10/10/2016 5:50:50 AM,
Message: Inside rptBasketListing_ItemDataBound
-------------------------------------------------------------------------------
On 10/10/2016 5:50:50 AM,
Message: Inside rptBasketListing_ItemDataBound
-------------------------------------------------------------------------------
On 10/10/2016 5:50:50 AM,
Message: Inside e.Item.ItemType == ListItemType.Footer rptBasketListing_ItemDataBound
-------------------------------------------------------------------------------
On 10/10/2016 5:50:50 AM,
Message: Exiting rptBasketListing_ItemDataBound
-------------------------------------------------------------------------------
On 10/10/2016 5:50:50 AM,
Message: Before Calling BindUserAddress() of page load()
-------------------------------------------------------------------------------
On 10/10/2016 5:50:50 AM,
Message: Inside BindUserAddress()
-------------------------------------------------------------------------------
On 10/10/2016 5:50:50 AM,
Message: Inside Session[User] != null in BindUserAddress()
-------------------------------------------------------------------------------
On 10/10/2016 5:50:50 AM,
Message: Assigining UserdetailLanguageWise.EmailId in BindUserAddress()
-------------------------------------------------------------------------------
On 10/10/2016 5:50:50 AM,
Message: Assigining UserdetailLanguageWise.LanguageId in BindUserAddress()
-------------------------------------------------------------------------------
On 10/10/2016 5:50:50 AM,
Message: Assigining UserdetailLanguageWise.CurrencyId in BindUserAddress()
-------------------------------------------------------------------------------
On 10/10/2016 5:50:50 AM,
Message: Before Calling UserBL.GetSingleObjectDetails in BindUserAddress()
-------------------------------------------------------------------------------
On 10/10/2016 5:50:50 AM,
Message: Inside Else of Session[GuestUser] == null in BindUserAddress()
-------------------------------------------------------------------------------
On 10/10/2016 5:50:58 AM,
Message: After calling UserRegistrationBL.GetUserRegistrationDetails() in BindUserAddress()
-------------------------------------------------------------------------------
On 10/10/2016 5:50:58 AM,
Message: After assigning objTempUserRegistrationBE.UserRegistrationLanguagesLst in BindUserAddress()
-------------------------------------------------------------------------------
On 10/10/2016 5:50:58 AM,
Message: Inside case predefinedcolumn1: for Guest User in BindUserAddress()
-------------------------------------------------------------------------------
On 10/10/2016 5:50:58 AM,
Message: Inside case predefinedcolumn2: for Guest User in BindUserAddress()
-------------------------------------------------------------------------------
On 10/10/2016 5:50:58 AM,
Message: Inside case predefinedcolumn3: for Guest User in BindUserAddress()
-------------------------------------------------------------------------------
On 10/10/2016 5:50:58 AM,
Message: Inside case predefinedcolumn4: for Guest User in BindUserAddress()
-------------------------------------------------------------------------------
On 10/10/2016 5:50:58 AM,
Message: Inside case predefinedcolumn5: for Guest User in BindUserAddress()
-------------------------------------------------------------------------------
On 10/10/2016 5:50:58 AM,
Message: Inside case predefinedcolumn6: for Guest User in BindUserAddress()
-------------------------------------------------------------------------------
On 10/10/2016 5:50:58 AM,
Message: Inside case predefinedcolumn7: for Guest User in BindUserAddress()
-------------------------------------------------------------------------------
On 10/10/2016 5:50:58 AM,
Message: Inside case predefinedcolumn1: for Guest User in BindUserAddress()
-------------------------------------------------------------------------------
On 10/10/2016 5:50:58 AM,
Message: After Calling BindUserAddress() of page load()
-------------------------------------------------------------------------------
On 10/10/2016 5:50:58 AM,
Message: Before Calling SetFreightValues() of page load()
-------------------------------------------------------------------------------
On 10/10/2016 5:50:58 AM,
Message: Inside SetFreightValues()
-------------------------------------------------------------------------------
On 10/10/2016 5:50:58 AM,
Message: Before Calling CalculateFreight() in SetFreightValues()
-------------------------------------------------------------------------------
On 10/10/2016 5:50:58 AM,
Message: Inside CalculateFreight() CalculateFreight()
-------------------------------------------------------------------------------
On 10/10/2016 5:50:58 AM,
Message: Before Calling CountryBL.GetAllCountries() CalculateFreight()
-------------------------------------------------------------------------------
On 10/10/2016 5:50:58 AM,
Message: After Calling CountryBL.GetAllCountries() CalculateFreight()
-------------------------------------------------------------------------------
On 10/10/2016 5:50:58 AM,
Message: Before Calling StoreBL.GetStoreDetails() CalculateFreight()
-------------------------------------------------------------------------------
On 10/10/2016 5:50:58 AM,
Message: After Calling StoreBL.GetStoreDetails() CalculateFreight()
-------------------------------------------------------------------------------
On 10/10/2016 5:50:58 AM,
Message: Inside objStoreBE != null in CalculateFreight()
-------------------------------------------------------------------------------
On 10/10/2016 5:50:58 AM,
Message: Before Calling FreightManagementBL.GetAllFreightMultiplerCurrency() CalculateFreight()
-------------------------------------------------------------------------------
On 10/10/2016 5:50:58 AM,
Message: Before Calling FreightManagementBL.GetAllFreightMultiplerCurrency() CalculateFreight()
-------------------------------------------------------------------------------
On 10/10/2016 5:50:58 AM,
Message: Inside lstAllFreightMultiplerCurrency.Count > 0 in CalculateFreight()
-------------------------------------------------------------------------------
On 10/10/2016 5:50:58 AM,
Message: Exiting lstAllFreightMultiplerCurrency.Count > 0 in CalculateFreight()
-------------------------------------------------------------------------------
On 10/10/2016 5:50:58 AM,
Message: Inside lstUser != null && lstUser.UserId != 0 in CalculateFreight()
-------------------------------------------------------------------------------
On 10/10/2016 5:50:58 AM,
Message: Before calling ShoppingCartBL.GetBasketProductsData in CalculateFreight()
-------------------------------------------------------------------------------
On 10/10/2016 5:50:58 AM,
Message: Exiting calling ShoppingCartBL.GetBasketProductsData in CalculateFreight()
-------------------------------------------------------------------------------
On 10/10/2016 5:50:58 AM,
Message: Before calling FreightManagementBL.GetFreightDetails in CalculateFreight()
-------------------------------------------------------------------------------
On 10/10/2016 5:51:01 AM,
Message: After calling FreightManagementBL.GetFreightDetails in CalculateFreight()
-------------------------------------------------------------------------------
On 10/10/2016 5:51:01 AM,
Message: Exiting objStoreBE != null in CalculateFreight()
-------------------------------------------------------------------------------
On 10/10/2016 5:51:01 AM,
Message: After Calling CalculateFreight() in SetFreightValues()
-------------------------------------------------------------------------------
On 10/10/2016 5:51:01 AM,
Message: Before Calling CountryBL.GetAllCountries() in SetFreightValues()
-------------------------------------------------------------------------------
On 10/10/2016 5:51:01 AM,
Message: Inside !string.Equals(ddlDCountry.SelectedValue, 0) in SetFreightValues()
-------------------------------------------------------------------------------
On 10/10/2016 5:51:01 AM,
Message: Inside lstFreightBE != null && lstFreightBE.Count > 0 in SetFreightValues()
-------------------------------------------------------------------------------
On 10/10/2016 5:51:01 AM,
Message: Inside lstFreightBE[0].IsStandard in SetFreightValues()
-------------------------------------------------------------------------------
On 10/10/2016 5:51:01 AM,
Message: Inside lstFreightBE[0].IsExpress in SetFreightValues()
-------------------------------------------------------------------------------
On 10/10/2016 5:51:01 AM,
Message: Inside !string.IsNullOrEmpty(lstFreightBE[0].SZPrice) in SetFreightValues()
-------------------------------------------------------------------------------
On 10/10/2016 5:51:01 AM,
Message: Inside !string.IsNullOrEmpty(lstFreightBE[0].EZPrice) in SetFreightValues()
-------------------------------------------------------------------------------
On 10/10/2016 5:51:01 AM,
Message: Inside Convert.ToDouble(lstFreightBE[0].SZPrice) >= 0 in SetFreightValues()
-------------------------------------------------------------------------------
On 10/10/2016 5:51:01 AM,
Message: Inside Convert.ToDouble(lstFreightBE[0].EZPrice) >= 0 in SetFreightValues()
-------------------------------------------------------------------------------
On 10/10/2016 5:51:01 AM,
Message: Inside !string.IsNullOrEmpty(lstFreightBE[0].SZPrice) in SetFreightValues()
-------------------------------------------------------------------------------
On 10/10/2016 5:51:01 AM,
Message: Inside !string.IsNullOrEmpty(lstFreightBE[0].EZPrice) in SetFreightValues()
-------------------------------------------------------------------------------
On 10/10/2016 5:51:01 AM,
Message: Before calling CalculateTax in SetFreightValues()
-------------------------------------------------------------------------------
On 10/10/2016 5:51:03 AM,
Message: Inside CalculateTax()
-------------------------------------------------------------------------------
On 10/10/2016 5:51:03 AM,
Message: After calling StoreBL.GetStoreDetails() in CalculateTax()
-------------------------------------------------------------------------------
On 10/10/2016 5:51:03 AM,
Message: Inside objStoreBE != null && objStoreBE.IsBASYS In CalculateTax
-------------------------------------------------------------------------------
On 10/10/2016 5:51:03 AM,
Message: Before calling CountryBL.GetAllCountries() In CalculateTax
-------------------------------------------------------------------------------
On 10/10/2016 5:51:03 AM,
Message: Before calling ShoppingCartBL.GetBasketProductsData for Guest User In CalculateTax
-------------------------------------------------------------------------------
On 10/10/2016 5:51:03 AM,
Message: Before calling wsTax.getTaxDetails for Standard In CalculateTax
-------------------------------------------------------------------------------
On 10/10/2016 5:51:03 AM,
Message: Inside GetTaxDetails()
-------------------------------------------------------------------------------
On 10/10/2016 5:51:04 AM,
Message: Before Calling LIVE TAX Web service()
-------------------------------------------------------------------------------
On 10/10/2016 5:51:25 AM,
Message: After calling wsTax.getTaxDetails for Standard In CalculateTax
-------------------------------------------------------------------------------
On 10/10/2016 5:51:25 AM,
Message: Before calling wsTax.getTaxDetails for Express In CalculateTax
-------------------------------------------------------------------------------
On 10/10/2016 5:51:25 AM,
Message: Inside GetTaxDetails()
-------------------------------------------------------------------------------
On 10/10/2016 5:51:25 AM,
Message: Before Calling LIVE TAX Web service()
-------------------------------------------------------------------------------
On 10/10/2016 5:51:46 AM,
Message: After calling wsTax.getTaxDetails for Express In CalculateTax
-------------------------------------------------------------------------------
On 10/10/2016 5:51:46 AM,
Message: After calling CalculateTax in SetFreightValues()
-------------------------------------------------------------------------------
On 10/10/2016 5:51:46 AM,
Message: Exiting SetFreightvalues()
-------------------------------------------------------------------------------
On 10/10/2016 5:51:46 AM,
Message: After Calling SetFreightValues() of page load()
-------------------------------------------------------------------------------
On 10/10/2016 5:51:46 AM,
Message: Before Calling BindPriceDetails() of page load()
-------------------------------------------------------------------------------
On 10/10/2016 5:51:46 AM,
Message: Inside BindPriceDetails()
-------------------------------------------------------------------------------
On 10/10/2016 5:51:46 AM,
Message: Inside rbStandard.Checked in BindPriceDetails()
-------------------------------------------------------------------------------
On 10/10/2016 5:51:46 AM,
Message: Exiting rbStandard.Checked in BindPriceDetails()
-------------------------------------------------------------------------------
On 10/10/2016 5:51:46 AM,
Message: Exiting BindPriceDetails()
-------------------------------------------------------------------------------
On 10/10/2016 5:51:46 AM,
Message: After Calling BindPriceDetails() of page load()
-------------------------------------------------------------------------------
On 10/10/2016 5:51:46 AM,
Message: Before Calling BindUDFFields() of page load()
-------------------------------------------------------------------------------
On 10/10/2016 5:51:46 AM,
Message: Inside BindUDFFields()
-------------------------------------------------------------------------------
On 10/10/2016 5:51:46 AM,
Message: Before calling ShoppingCartBL.GetAllPaymentTypesByLanguageID() in BindUDFFields()
-------------------------------------------------------------------------------
On 10/10/2016 5:51:46 AM,
Message: Before calling ShoppingCartBL.GetAllPaymentTypesByLanguageID() in BindUDFFields()
-------------------------------------------------------------------------------
On 10/10/2016 5:51:46 AM,
Message: Inside lstPaymentTypes.Count > 0 in BindUDFFields()
-------------------------------------------------------------------------------
On 10/10/2016 5:51:47 AM,
Message: Inside lstObj != null && lstObj.Count > 0 in BindUDFFields()
-------------------------------------------------------------------------------
On 10/10/2016 5:51:47 AM,
Message: Inside lstUDFFilterBE[j].RuleType == A in BindUDFFields()
-------------------------------------------------------------------------------
On 10/10/2016 5:51:50 AM,
Message: Inside lstUDFFilterBE[j].RuleType == E in BindUDFFields()
-------------------------------------------------------------------------------
On 10/10/2016 5:51:50 AM,
Message: Inside lstUDFFilterBE[j].RuleType == A in BindUDFFields()
-------------------------------------------------------------------------------
On 10/10/2016 5:51:52 AM,
Message: Exiting BindUDFFields()
-------------------------------------------------------------------------------
On 10/10/2016 5:51:52 AM,
Message: After Calling BindUDFFields() of page load()
-------------------------------------------------------------------------------
On 10/10/2016 5:51:52 AM,
Message: Before Calling BindStaticText() of page load()
-------------------------------------------------------------------------------
On 10/10/2016 5:51:52 AM,
Message: Inside BindStaticText()
-------------------------------------------------------------------------------
On 10/10/2016 5:51:52 AM,
Message: Before calling StaticPageManagementBL.GetAllDetails in BindStaticText()
-------------------------------------------------------------------------------
On 10/10/2016 5:51:52 AM,
Message: After calling StaticPageManagementBL.GetAllDetails in BindStaticText()
-------------------------------------------------------------------------------
On 10/10/2016 5:51:52 AM,
Message: Inside lst != null && lst.Count > 0 in BindStaticText()
-------------------------------------------------------------------------------
On 10/10/2016 5:51:52 AM,
Message: Before calling StaticTextKeyBL.GetAllKeys in BindStaticText()
-------------------------------------------------------------------------------
On 10/10/2016 5:51:52 AM,
Message: After calling StaticTextKeyBL.GetAllKeys in BindStaticText()
-------------------------------------------------------------------------------
On 10/10/2016 5:51:52 AM,
Message: Exiting BindStaticText()
-------------------------------------------------------------------------------
On 10/10/2016 5:51:52 AM,
Message: After Calling BindStaticText() of page load()
-------------------------------------------------------------------------------
On 10/10/2016 7:34:23 AM,
Message: Registration:Filtering starts
-------------------------------------------------------------------------------
On 10/10/2016 7:34:23 AM,
Message: Registration:before Registeration details
-------------------------------------------------------------------------------
On 10/10/2016 7:34:30 AM,
Message: Registration:after Registeration details
-------------------------------------------------------------------------------
On 10/10/2016 7:34:30 AM,
Message: Registration:Filtering end
-------------------------------------------------------------------------------
On 10/10/2016 7:34:36 AM,
Message: Payment Page Load Start
-------------------------------------------------------------------------------
On 10/10/2016 7:34:37 AM,
Message: Before calling BindResourceData()
-------------------------------------------------------------------------------
On 10/10/2016 7:34:37 AM,
Message: Inside BindResourceData()
-------------------------------------------------------------------------------
On 10/10/2016 7:34:37 AM,
Message: Inside lstStaticPageBE != null && lstStaticPageBE.Count > 0 in BindResourceData()
-------------------------------------------------------------------------------
On 10/10/2016 7:34:37 AM,
Message: Exiting BindResourceData()
-------------------------------------------------------------------------------
On 10/10/2016 7:34:37 AM,
Message: After calling BindResourceData()
-------------------------------------------------------------------------------
On 10/10/2016 7:34:37 AM,
Message: Before calling GetStoreDetails()
-------------------------------------------------------------------------------
On 10/10/2016 7:34:37 AM,
Message: After calling GetStoreDetails()
-------------------------------------------------------------------------------
On 10/10/2016 7:34:37 AM,
Message: InSide objStoreBE != null condition
-------------------------------------------------------------------------------
On 10/10/2016 7:34:37 AM,
Message: Before assigning bBackOrderAllowed
-------------------------------------------------------------------------------
On 10/10/2016 7:34:37 AM,
Message: Inside setting dvApplyCode.Visible = true
-------------------------------------------------------------------------------
On 10/10/2016 7:34:37 AM,
Message: Inside setting dvApplyGiftCertificate.Visible = true for local
-------------------------------------------------------------------------------
On 10/10/2016 7:34:37 AM,
Message: Inside setting dvApplyGiftCertificate.Visible = true
-------------------------------------------------------------------------------
On 10/10/2016 7:34:37 AM,
Message: After fetching sc_paymentgateway feature
-------------------------------------------------------------------------------
On 10/10/2016 7:34:37 AM,
Message: Inside objFeatures != null
-------------------------------------------------------------------------------
On 10/10/2016 7:34:37 AM,
Message: After fetching objLstFeatureValueBE value
-------------------------------------------------------------------------------
On 10/10/2016 7:34:37 AM,
Message: Inside objLstFeatureValueBE != null
-------------------------------------------------------------------------------
On 10/10/2016 7:34:37 AM,
Message: After fetching objFeatureValueBE value
-------------------------------------------------------------------------------
On 10/10/2016 7:34:37 AM,
Message: Before calling ShoppingCartBL.GetBasketProductsData() for GuestUser User
-------------------------------------------------------------------------------
On 10/10/2016 7:34:37 AM,
Message: After calling ShoppingCartBL.GetBasketProductsData() for GuestUser User
-------------------------------------------------------------------------------
On 10/10/2016 7:34:37 AM,
Message: Inside lstShoppingBE != null && lstShoppingBE.Count > 0 condition
-------------------------------------------------------------------------------
On 10/10/2016 7:34:37 AM,
Message: Before calling BindDeliveryAddress()
-------------------------------------------------------------------------------
On 10/10/2016 7:34:37 AM,
Message: Inside BindDeliveryAddress()
-------------------------------------------------------------------------------
On 10/10/2016 7:34:37 AM,
Message: Inside else of Session[GuestUser] == null
-------------------------------------------------------------------------------
On 10/10/2016 7:34:37 AM,
Message: Exiting BindDeliveryAddress()
-------------------------------------------------------------------------------
On 10/10/2016 7:34:37 AM,
Message: After calling BindDeliveryAddress()
-------------------------------------------------------------------------------
On 10/10/2016 7:34:37 AM,
Message: Before calling BindPaymentTypes()
-------------------------------------------------------------------------------
On 10/10/2016 7:34:37 AM,
Message: Inside BindPaymentTypes()
-------------------------------------------------------------------------------
On 10/10/2016 7:34:37 AM,
Message: After calling StoreBL.GetStoreDetails()
-------------------------------------------------------------------------------
On 10/10/2016 7:34:37 AM,
Message: After assingning objFeatures in BindPaymentTypes()
-------------------------------------------------------------------------------
On 10/10/2016 7:34:37 AM,
Message: After assingning objLstFeatureValueBE in BindPaymentTypes()
-------------------------------------------------------------------------------
On 10/10/2016 7:34:37 AM,
Message: After assingning objFeatureValueBE in BindPaymentTypes()
-------------------------------------------------------------------------------
On 10/10/2016 7:34:37 AM,
Message: Before calling ShoppingCartBL.GetAllPaymentTypesByLanguageID() in BindPaymentTypes()
-------------------------------------------------------------------------------
On 10/10/2016 7:34:37 AM,
Message: After calling ShoppingCartBL.GetAllPaymentTypesByLanguageID() in BindPaymentTypes()
-------------------------------------------------------------------------------
On 10/10/2016 7:34:37 AM,
Message: Before assingning Datasource to ddlPaymentTypes in BindPaymentTypes()
-------------------------------------------------------------------------------
On 10/10/2016 7:34:37 AM,
Message: After DataBinding ddlPaymentTypes in BindPaymentTypes()
-------------------------------------------------------------------------------
On 10/10/2016 7:34:37 AM,
Message: After calling BindPaymentTypes()
-------------------------------------------------------------------------------
On 10/10/2016 7:34:37 AM,
Message: Before calling BindCountryDropDown()
-------------------------------------------------------------------------------
On 10/10/2016 7:34:37 AM,
Message:  Inside BindCountryDropDown()
-------------------------------------------------------------------------------
On 10/10/2016 7:34:37 AM,
Message: Before assingning DataSource to ddlDCountry in BindCountryDropDown()
-------------------------------------------------------------------------------
On 10/10/2016 7:34:37 AM,
Message: Before DataBind event of ddlDCountry in BindCountryDropDown()
-------------------------------------------------------------------------------
On 10/10/2016 7:34:37 AM,
Message: Exiting BindCountryDropDown()
-------------------------------------------------------------------------------
On 10/10/2016 7:34:37 AM,
Message: After calling BindCountryDropDown()
-------------------------------------------------------------------------------
On 10/10/2016 7:34:37 AM,
Message: Inside rptBasketListing_ItemDataBound
-------------------------------------------------------------------------------
On 10/10/2016 7:34:38 AM,
Message: Inside rptBasketListing_ItemDataBound
-------------------------------------------------------------------------------
On 10/10/2016 7:34:38 AM,
Message: Inside e.Item.ItemType == ListItemType.Footer rptBasketListing_ItemDataBound
-------------------------------------------------------------------------------
On 10/10/2016 7:34:38 AM,
Message: Exiting rptBasketListing_ItemDataBound
-------------------------------------------------------------------------------
On 10/10/2016 7:34:38 AM,
Message: Before Calling BindUserAddress() of page load()
-------------------------------------------------------------------------------
On 10/10/2016 7:34:38 AM,
Message: Inside BindUserAddress()
-------------------------------------------------------------------------------
On 10/10/2016 7:34:38 AM,
Message: Inside Session[User] != null in BindUserAddress()
-------------------------------------------------------------------------------
On 10/10/2016 7:34:38 AM,
Message: Assigining UserdetailLanguageWise.EmailId in BindUserAddress()
-------------------------------------------------------------------------------
On 10/10/2016 7:34:38 AM,
Message: Assigining UserdetailLanguageWise.LanguageId in BindUserAddress()
-------------------------------------------------------------------------------
On 10/10/2016 7:34:38 AM,
Message: Assigining UserdetailLanguageWise.CurrencyId in BindUserAddress()
-------------------------------------------------------------------------------
On 10/10/2016 7:34:38 AM,
Message: Before Calling UserBL.GetSingleObjectDetails in BindUserAddress()
-------------------------------------------------------------------------------
On 10/10/2016 7:34:38 AM,
Message: Inside Else of Session[GuestUser] == null in BindUserAddress()
-------------------------------------------------------------------------------
On 10/10/2016 7:34:46 AM,
Message: After calling UserRegistrationBL.GetUserRegistrationDetails() in BindUserAddress()
-------------------------------------------------------------------------------
On 10/10/2016 7:34:46 AM,
Message: After assigning objTempUserRegistrationBE.UserRegistrationLanguagesLst in BindUserAddress()
-------------------------------------------------------------------------------
On 10/10/2016 7:34:46 AM,
Message: Inside case predefinedcolumn1: for Guest User in BindUserAddress()
-------------------------------------------------------------------------------
On 10/10/2016 7:34:46 AM,
Message: Inside case predefinedcolumn2: for Guest User in BindUserAddress()
-------------------------------------------------------------------------------
On 10/10/2016 7:34:46 AM,
Message: Inside case predefinedcolumn3: for Guest User in BindUserAddress()
-------------------------------------------------------------------------------
On 10/10/2016 7:34:46 AM,
Message: Inside case predefinedcolumn4: for Guest User in BindUserAddress()
-------------------------------------------------------------------------------
On 10/10/2016 7:34:46 AM,
Message: Inside case predefinedcolumn5: for Guest User in BindUserAddress()
-------------------------------------------------------------------------------
On 10/10/2016 7:34:46 AM,
Message: Inside case predefinedcolumn6: for Guest User in BindUserAddress()
-------------------------------------------------------------------------------
On 10/10/2016 7:34:46 AM,
Message: Inside case predefinedcolumn7: for Guest User in BindUserAddress()
-------------------------------------------------------------------------------
On 10/10/2016 7:34:46 AM,
Message: Inside case predefinedcolumn1: for Guest User in BindUserAddress()
-------------------------------------------------------------------------------
On 10/10/2016 7:34:46 AM,
Message: After Calling BindUserAddress() of page load()
-------------------------------------------------------------------------------
On 10/10/2016 7:34:46 AM,
Message: Before Calling SetFreightValues() of page load()
-------------------------------------------------------------------------------
On 10/10/2016 7:34:46 AM,
Message: Inside SetFreightValues()
-------------------------------------------------------------------------------
On 10/10/2016 7:34:46 AM,
Message: Before Calling CalculateFreight() in SetFreightValues()
-------------------------------------------------------------------------------
On 10/10/2016 7:34:46 AM,
Message: Inside CalculateFreight() CalculateFreight()
-------------------------------------------------------------------------------
On 10/10/2016 7:34:46 AM,
Message: Before Calling CountryBL.GetAllCountries() CalculateFreight()
-------------------------------------------------------------------------------
On 10/10/2016 7:34:46 AM,
Message: After Calling CountryBL.GetAllCountries() CalculateFreight()
-------------------------------------------------------------------------------
On 10/10/2016 7:34:46 AM,
Message: Before Calling StoreBL.GetStoreDetails() CalculateFreight()
-------------------------------------------------------------------------------
On 10/10/2016 7:34:46 AM,
Message: After Calling StoreBL.GetStoreDetails() CalculateFreight()
-------------------------------------------------------------------------------
On 10/10/2016 7:34:46 AM,
Message: Inside objStoreBE != null in CalculateFreight()
-------------------------------------------------------------------------------
On 10/10/2016 7:34:46 AM,
Message: Before Calling FreightManagementBL.GetAllFreightMultiplerCurrency() CalculateFreight()
-------------------------------------------------------------------------------
On 10/10/2016 7:34:46 AM,
Message: Before Calling FreightManagementBL.GetAllFreightMultiplerCurrency() CalculateFreight()
-------------------------------------------------------------------------------
On 10/10/2016 7:34:46 AM,
Message: Inside lstAllFreightMultiplerCurrency.Count > 0 in CalculateFreight()
-------------------------------------------------------------------------------
On 10/10/2016 7:34:46 AM,
Message: Exiting lstAllFreightMultiplerCurrency.Count > 0 in CalculateFreight()
-------------------------------------------------------------------------------
On 10/10/2016 7:34:46 AM,
Message: Inside lstUser != null && lstUser.UserId != 0 in CalculateFreight()
-------------------------------------------------------------------------------
On 10/10/2016 7:34:46 AM,
Message: Before calling ShoppingCartBL.GetBasketProductsData in CalculateFreight()
-------------------------------------------------------------------------------
On 10/10/2016 7:34:46 AM,
Message: Exiting calling ShoppingCartBL.GetBasketProductsData in CalculateFreight()
-------------------------------------------------------------------------------
On 10/10/2016 7:34:46 AM,
Message: Before calling FreightManagementBL.GetFreightDetails in CalculateFreight()
-------------------------------------------------------------------------------
On 10/10/2016 7:34:49 AM,
Message: After calling FreightManagementBL.GetFreightDetails in CalculateFreight()
-------------------------------------------------------------------------------
On 10/10/2016 7:34:49 AM,
Message: Exiting objStoreBE != null in CalculateFreight()
-------------------------------------------------------------------------------
On 10/10/2016 7:34:49 AM,
Message: After Calling CalculateFreight() in SetFreightValues()
-------------------------------------------------------------------------------
On 10/10/2016 7:34:49 AM,
Message: Before Calling CountryBL.GetAllCountries() in SetFreightValues()
-------------------------------------------------------------------------------
On 10/10/2016 7:34:49 AM,
Message: Inside !string.Equals(ddlDCountry.SelectedValue, 0) in SetFreightValues()
-------------------------------------------------------------------------------
On 10/10/2016 7:34:49 AM,
Message: Inside lstFreightBE != null && lstFreightBE.Count > 0 in SetFreightValues()
-------------------------------------------------------------------------------
On 10/10/2016 7:34:49 AM,
Message: Inside lstFreightBE[0].IsStandard in SetFreightValues()
-------------------------------------------------------------------------------
On 10/10/2016 7:34:49 AM,
Message: Inside lstFreightBE[0].IsExpress in SetFreightValues()
-------------------------------------------------------------------------------
On 10/10/2016 7:34:49 AM,
Message: Inside !string.IsNullOrEmpty(lstFreightBE[0].SZPrice) in SetFreightValues()
-------------------------------------------------------------------------------
On 10/10/2016 7:34:49 AM,
Message: Inside !string.IsNullOrEmpty(lstFreightBE[0].EZPrice) in SetFreightValues()
-------------------------------------------------------------------------------
On 10/10/2016 7:34:49 AM,
Message: Inside Convert.ToDouble(lstFreightBE[0].SZPrice) >= 0 in SetFreightValues()
-------------------------------------------------------------------------------
On 10/10/2016 7:34:49 AM,
Message: Inside Convert.ToDouble(lstFreightBE[0].EZPrice) >= 0 in SetFreightValues()
-------------------------------------------------------------------------------
On 10/10/2016 7:34:49 AM,
Message: Inside !string.IsNullOrEmpty(lstFreightBE[0].SZPrice) in SetFreightValues()
-------------------------------------------------------------------------------
On 10/10/2016 7:34:49 AM,
Message: Inside !string.IsNullOrEmpty(lstFreightBE[0].EZPrice) in SetFreightValues()
-------------------------------------------------------------------------------
On 10/10/2016 7:34:49 AM,
Message: Before calling CalculateTax in SetFreightValues()
-------------------------------------------------------------------------------
On 10/10/2016 7:34:51 AM,
Message: Inside CalculateTax()
-------------------------------------------------------------------------------
On 10/10/2016 7:34:51 AM,
Message: After calling StoreBL.GetStoreDetails() in CalculateTax()
-------------------------------------------------------------------------------
On 10/10/2016 7:34:51 AM,
Message: Inside objStoreBE != null && objStoreBE.IsBASYS In CalculateTax
-------------------------------------------------------------------------------
On 10/10/2016 7:34:51 AM,
Message: Before calling CountryBL.GetAllCountries() In CalculateTax
-------------------------------------------------------------------------------
On 10/10/2016 7:34:51 AM,
Message: Before calling ShoppingCartBL.GetBasketProductsData for Guest User In CalculateTax
-------------------------------------------------------------------------------
On 10/10/2016 7:34:52 AM,
Message: Before calling wsTax.getTaxDetails for Standard In CalculateTax
-------------------------------------------------------------------------------
On 10/10/2016 7:34:52 AM,
Message: Inside GetTaxDetails()
-------------------------------------------------------------------------------
On 10/10/2016 7:34:52 AM,
Message: Before Calling LIVE TAX Web service()
-------------------------------------------------------------------------------
On 10/10/2016 7:35:13 AM,
Message: After calling wsTax.getTaxDetails for Standard In CalculateTax
-------------------------------------------------------------------------------
On 10/10/2016 7:35:13 AM,
Message: Before calling wsTax.getTaxDetails for Express In CalculateTax
-------------------------------------------------------------------------------
On 10/10/2016 7:35:13 AM,
Message: Inside GetTaxDetails()
-------------------------------------------------------------------------------
On 10/10/2016 7:35:13 AM,
Message: Before Calling LIVE TAX Web service()
-------------------------------------------------------------------------------
On 10/10/2016 7:35:34 AM,
Message: After calling wsTax.getTaxDetails for Express In CalculateTax
-------------------------------------------------------------------------------
On 10/10/2016 7:35:34 AM,
Message: After calling CalculateTax in SetFreightValues()
-------------------------------------------------------------------------------
On 10/10/2016 7:35:34 AM,
Message: Exiting SetFreightvalues()
-------------------------------------------------------------------------------
On 10/10/2016 7:35:34 AM,
Message: After Calling SetFreightValues() of page load()
-------------------------------------------------------------------------------
On 10/10/2016 7:35:34 AM,
Message: Before Calling BindPriceDetails() of page load()
-------------------------------------------------------------------------------
On 10/10/2016 7:35:34 AM,
Message: Inside BindPriceDetails()
-------------------------------------------------------------------------------
On 10/10/2016 7:35:34 AM,
Message: Inside rbStandard.Checked in BindPriceDetails()
-------------------------------------------------------------------------------
On 10/10/2016 7:35:34 AM,
Message: Exiting rbStandard.Checked in BindPriceDetails()
-------------------------------------------------------------------------------
On 10/10/2016 7:35:34 AM,
Message: Exiting BindPriceDetails()
-------------------------------------------------------------------------------
On 10/10/2016 7:35:34 AM,
Message: After Calling BindPriceDetails() of page load()
-------------------------------------------------------------------------------
On 10/10/2016 7:35:34 AM,
Message: Before Calling BindUDFFields() of page load()
-------------------------------------------------------------------------------
On 10/10/2016 7:35:34 AM,
Message: Inside BindUDFFields()
-------------------------------------------------------------------------------
On 10/10/2016 7:35:34 AM,
Message: Before calling ShoppingCartBL.GetAllPaymentTypesByLanguageID() in BindUDFFields()
-------------------------------------------------------------------------------
On 10/10/2016 7:35:35 AM,
Message: Before calling ShoppingCartBL.GetAllPaymentTypesByLanguageID() in BindUDFFields()
-------------------------------------------------------------------------------
On 10/10/2016 7:35:35 AM,
Message: Inside lstPaymentTypes.Count > 0 in BindUDFFields()
-------------------------------------------------------------------------------
On 10/10/2016 7:35:35 AM,
Message: Inside lstObj != null && lstObj.Count > 0 in BindUDFFields()
-------------------------------------------------------------------------------
On 10/10/2016 7:35:35 AM,
Message: Inside lstUDFFilterBE[j].RuleType == A in BindUDFFields()
-------------------------------------------------------------------------------
On 10/10/2016 7:35:38 AM,
Message: Inside lstUDFFilterBE[j].RuleType == E in BindUDFFields()
-------------------------------------------------------------------------------
On 10/10/2016 7:35:38 AM,
Message: Inside lstUDFFilterBE[j].RuleType == A in BindUDFFields()
-------------------------------------------------------------------------------
On 10/10/2016 7:35:42 AM,
Message: Exiting BindUDFFields()
-------------------------------------------------------------------------------
On 10/10/2016 7:35:42 AM,
Message: After Calling BindUDFFields() of page load()
-------------------------------------------------------------------------------
On 10/10/2016 7:35:42 AM,
Message: Before Calling BindStaticText() of page load()
-------------------------------------------------------------------------------
On 10/10/2016 7:35:42 AM,
Message: Inside BindStaticText()
-------------------------------------------------------------------------------
On 10/10/2016 7:35:42 AM,
Message: Before calling StaticPageManagementBL.GetAllDetails in BindStaticText()
-------------------------------------------------------------------------------
On 10/10/2016 7:35:42 AM,
Message: After calling StaticPageManagementBL.GetAllDetails in BindStaticText()
-------------------------------------------------------------------------------
On 10/10/2016 7:35:42 AM,
Message: Inside lst != null && lst.Count > 0 in BindStaticText()
-------------------------------------------------------------------------------
On 10/10/2016 7:35:42 AM,
Message: Before calling StaticTextKeyBL.GetAllKeys in BindStaticText()
-------------------------------------------------------------------------------
On 10/10/2016 7:35:43 AM,
Message: After calling StaticTextKeyBL.GetAllKeys in BindStaticText()
-------------------------------------------------------------------------------
On 10/10/2016 7:35:43 AM,
Message: Exiting BindStaticText()
-------------------------------------------------------------------------------
On 10/10/2016 7:35:43 AM,
Message: After Calling BindStaticText() of page load()
-------------------------------------------------------------------------------
