On 03/31/2017 6:03:32 PM,
Message: ---INSIDE PAGE LOAD OF INDEED_SSOLogs LOGIN--- 
-------------------------------------------------------------------------------
On 03/31/2017 6:03:39 PM,
Message: AFTER BINDING RESOURCES
-------------------------------------------------------------------------------
On 03/31/2017 6:03:41 PM,
Message: ---INSIDE SETUPREQUEST  POWERWEAVE USER--- 
-------------------------------------------------------------------------------
On 03/31/2017 6:03:46 PM,
Message: Employee_ID : IND0000002
-------------------------------------------------------------------------------
On 03/31/2017 6:03:47 PM,
Message: InsertUpdateEmployeeSAML Successfully
-------------------------------------------------------------------------------
On 03/31/2017 6:03:54 PM,
Message: Inside TRY
-------------------------------------------------------------------------------
On 03/31/2017 6:06:07 PM,
Message: BEFORE CALLING UserBL.ChkEmployeeExists
-------------------------------------------------------------------------------
On 03/31/2017 6:06:08 PM,
Message: AFTER CALLING UserBL.ChkEmployeeExists
-------------------------------------------------------------------------------
On 03/31/2017 6:06:11 PM,
Message: INSIDE IF UserExistInBASYS == 0
-------------------------------------------------------------------------------
On 03/31/2017 6:06:12 PM,
Message: BEFORE CALLING UserBL.GetIndeedSSOUserDetails
-------------------------------------------------------------------------------
On 03/31/2017 6:06:13 PM,
Message: AFTER CALLING UserBL.GetIndeedSSOUserDetails
-------------------------------------------------------------------------------
On 03/31/2017 6:06:13 PM,
Message: BEFORE CALLING UserBL.ChkUserExists
-------------------------------------------------------------------------------
On 03/31/2017 6:06:16 PM,
Message: AFTER CALLING UserBL.ChkUserExists
-------------------------------------------------------------------------------
On 03/31/2017 6:06:59 PM,
Message: Before calling UserBL.ExecuteRegisterDetails in SetUpRequest
-------------------------------------------------------------------------------
On 03/31/2017 6:07:01 PM,
Message: After calling UserBL.ExecuteRegisterDetails in SetUpRequest
-------------------------------------------------------------------------------
On 03/31/2017 6:11:17 PM,
Message: Before calling Login_UserLogin.UpdateBasketSessionProducts() in SetUpRequest
-------------------------------------------------------------------------------
On 03/31/2017 6:11:25 PM,
Message: Before calling Login_UserLogin.UpdateBasketSessionProducts() in SetUpRequest
-------------------------------------------------------------------------------
On 03/31/2017 6:11:36 PM,
Message: Before redirecting to INDEX for IF from SetUpRequest
-------------------------------------------------------------------------------
On 03/31/2017 9:38:40 PM,
Message: ---INSIDE PAGE LOAD OF INDEED_SSOLogs LOGIN--- 
-------------------------------------------------------------------------------
On 03/31/2017 9:38:45 PM,
Message: AFTER BINDING RESOURCES
-------------------------------------------------------------------------------
On 03/31/2017 9:38:47 PM,
Message: ---INSIDE SETUPREQUEST  POWERWEAVE USER--- 
-------------------------------------------------------------------------------
On 03/31/2017 9:38:51 PM,
Message: Employee_ID : IND0000002
-------------------------------------------------------------------------------
On 03/31/2017 9:39:09 PM,
Message: InsertUpdateEmployeeSAML Successfully
-------------------------------------------------------------------------------
On 03/31/2017 9:39:09 PM,
Message: Inside TRY
-------------------------------------------------------------------------------
On 03/31/2017 9:39:10 PM,
Message: BEFORE CALLING UserBL.ChkEmployeeExists
-------------------------------------------------------------------------------
On 03/31/2017 9:39:10 PM,
Message: AFTER CALLING UserBL.ChkEmployeeExists
-------------------------------------------------------------------------------
On 03/31/2017 9:39:10 PM,
Message: INSIDE IF UserExistInBASYS == 0
-------------------------------------------------------------------------------
On 03/31/2017 9:39:10 PM,
Message: BEFORE CALLING UserBL.GetIndeedSSOUserDetails
-------------------------------------------------------------------------------
On 03/31/2017 9:39:10 PM,
Message: AFTER CALLING UserBL.GetIndeedSSOUserDetails
-------------------------------------------------------------------------------
On 03/31/2017 9:39:10 PM,
Message: BEFORE CALLING UserBL.ChkUserExists
-------------------------------------------------------------------------------
On 03/31/2017 9:39:10 PM,
Message: AFTER CALLING UserBL.ChkUserExists
-------------------------------------------------------------------------------
On 03/31/2017 9:41:06 PM,
Message: ---INSIDE PAGE LOAD OF INDEED_SSOLogs LOGIN--- 
-------------------------------------------------------------------------------
On 03/31/2017 9:41:12 PM,
Message: AFTER BINDING RESOURCES
-------------------------------------------------------------------------------
On 03/31/2017 9:41:13 PM,
Message: ---INSIDE SETUPREQUEST  POWERWEAVE USER--- 
-------------------------------------------------------------------------------
On 03/31/2017 9:41:18 PM,
Message: Employee_ID : BAUK000005
-------------------------------------------------------------------------------
On 03/31/2017 9:41:20 PM,
Message: InsertUpdateEmployeeSAML Successfully
-------------------------------------------------------------------------------
On 03/31/2017 9:41:25 PM,
Message: Inside TRY
-------------------------------------------------------------------------------
On 03/31/2017 9:41:46 PM,
Message: BEFORE CALLING UserBL.ChkEmployeeExists
-------------------------------------------------------------------------------
On 03/31/2017 9:41:49 PM,
Message: AFTER CALLING UserBL.ChkEmployeeExists
-------------------------------------------------------------------------------
On 03/31/2017 9:41:51 PM,
Message: INSIDE IF UserExistInBASYS == 0
-------------------------------------------------------------------------------
On 03/31/2017 9:41:53 PM,
Message: BEFORE CALLING UserBL.GetIndeedSSOUserDetails
-------------------------------------------------------------------------------
On 03/31/2017 9:41:54 PM,
Message: AFTER CALLING UserBL.GetIndeedSSOUserDetails
-------------------------------------------------------------------------------
On 03/31/2017 9:41:56 PM,
Message: BEFORE CALLING UserBL.ChkUserExists
-------------------------------------------------------------------------------
On 03/31/2017 9:41:58 PM,
Message: AFTER CALLING UserBL.ChkUserExists
-------------------------------------------------------------------------------
