


************** IsMarketing Start *************** 3/13/2017 6:19:03 PM ************


<sbCommContent>
  <sbBOName>Person</sbBOName>
  <sbBOAttrs>
    <EmailLogin>test123'$%^{@abc.com</EmailLogin>
    <FirstName>vikram</FirstName>
    <LastName>singh</LastName>
    <CompanyName>test</CompanyName>
    <Country>United Kingdom</Country>
    <County>test</County>
    <Currency />
  </sbBOAttrs>
  <sbContacts_RV></sbContacts_RV>
</sbCommContent>
**************************** IsMarketing End ***************************





************** IsMarketing Start *************** 3/13/2017 6:20:03 PM ************


<sbCommContent>
  <sbBOName>Person</sbBOName>
  <sbBOAttrs>
    <EmailLogin>test123'$%^{@abc.com</EmailLogin>
    <FirstName>vikram</FirstName>
    <LastName>singh</LastName>
    <CompanyName>test</CompanyName>
    <Country>United Kingdom</Country>
    <County>test</County>
    <Currency />
  </sbBOAttrs>
  <sbContacts_RV></sbContacts_RV>
</sbCommContent>
**************************** IsMarketing End ***************************





************** IsMarketing Start *************** 3/13/2017 6:20:13 PM ************


<sbCommContent>
  <sbBOName>Person</sbBOName>
  <sbBOAttrs>
    <EmailLogin>test123'$%^{@abc.com</EmailLogin>
    <FirstName>vikram</FirstName>
    <LastName>singh</LastName>
    <CompanyName>test</CompanyName>
    <Country>United Kingdom</Country>
    <County>test</County>
    <Currency />
  </sbBOAttrs>
  <sbContacts_RV></sbContacts_RV>
</sbCommContent>
**************************** IsMarketing End ***************************





************** IsMarketing Start *************** 3/13/2017 6:51:17 PM ************


<sbCommContent>
  <sbBOName>Person</sbBOName>
  <sbBOAttrs>
    <EmailLogin>vikram.singh1234@powerweave.com</EmailLogin>
    <FirstName>vikram</FirstName>
    <LastName>singh</LastName>
    <CompanyName>test</CompanyName>
    <Country>United Kingdom</Country>
    <County>test</County>
    <Currency />
  </sbBOAttrs>
  <sbContacts_RV></sbContacts_RV>
</sbCommContent>
**************************** IsMarketing End ***************************





************** IsMarketing Start *************** 3/13/2017 6:51:42 PM ************


<sbCommContent>
  <sbBOName>Person</sbBOName>
  <sbBOAttrs>
    <EmailLogin>vikram.singh1234@powerweave.com</EmailLogin>
    <FirstName>vikram</FirstName>
    <LastName>singh</LastName>
    <CompanyName>test</CompanyName>
    <Country>United Kingdom</Country>
    <County>test</County>
    <Currency />
  </sbBOAttrs>
  <sbContacts_RV></sbContacts_RV>
</sbCommContent>
**************************** IsMarketing End ***************************





************** IsMarketing Start *************** 3/13/2017 6:52:53 PM ************


<sbCommContent>
  <sbBOName>Person</sbBOName>
  <sbBOAttrs>
    <EmailLogin>vikram.singh1234@powerweave.com</EmailLogin>
    <FirstName>vikram</FirstName>
    <LastName>singh</LastName>
    <CompanyName>test</CompanyName>
    <Country>United Kingdom</Country>
    <County>test</County>
    <Currency />
  </sbBOAttrs>
  <sbContacts_RV></sbContacts_RV>
</sbCommContent>
**************************** IsMarketing End ***************************





************** IsMarketing Start *************** 3/13/2017 7:08:59 PM ************


<sbCommContent>
  <sbBOName>Person</sbBOName>
  <sbBOAttrs>
    <EmailLogin>vikram.singh12345@powerweave.com</EmailLogin>
    <FirstName>vikram</FirstName>
    <LastName>singh</LastName>
    <CompanyName>test</CompanyName>
    <Country>United Kingdom</Country>
    <County>test</County>
    <Currency />
  </sbBOAttrs>
  <sbContacts_RV></sbContacts_RV>
</sbCommContent>
**************************** IsMarketing End ***************************





************** IsMarketing Start *************** 3/13/2017 7:09:09 PM ************


<sbCommContent>
  <sbBOName>Person</sbBOName>
  <sbBOAttrs>
    <EmailLogin>vikram.singh12345@powerweave.com</EmailLogin>
    <FirstName>vikram</FirstName>
    <LastName>singh</LastName>
    <CompanyName>test</CompanyName>
    <Country>United Kingdom</Country>
    <County>test</County>
    <Currency />
  </sbBOAttrs>
  <sbContacts_RV></sbContacts_RV>
</sbCommContent>
**************************** IsMarketing End ***************************





************** IsMarketing Start *************** 3/13/2017 7:09:21 PM ************


<sbCommContent>
  <sbBOName>Person</sbBOName>
  <sbBOAttrs>
    <EmailLogin>vikram.singh12345@powerweave.com</EmailLogin>
    <FirstName>vikram</FirstName>
    <LastName>singh</LastName>
    <CompanyName>test</CompanyName>
    <Country>United Kingdom</Country>
    <County>test</County>
    <Currency />
  </sbBOAttrs>
  <sbContacts_RV></sbContacts_RV>
</sbCommContent>
**************************** IsMarketing End ***************************





************** IsMarketing Start *************** 3/13/2017 7:17:47 PM ************


<sbCommContent>
  <sbBOName>Person</sbBOName>
  <sbBOAttrs>
    <EmailLogin>test123'$@abc.com</EmailLogin>
    <FirstName>vikram</FirstName>
    <LastName>singh</LastName>
    <CompanyName>Pw</CompanyName>
    <Country>United Kingdom</Country>
    <County>test</County>
    <Currency />
  </sbBOAttrs>
  <sbContacts_RV></sbContacts_RV>
</sbCommContent>
**************************** IsMarketing End ***************************





************** IsMarketing Start *************** 3/13/2017 7:17:51 PM ************


<sbCommContent>
  <sbBOName>Person</sbBOName>
  <sbBOAttrs>
    <EmailLogin>test123'$@abc.com</EmailLogin>
    <FirstName>vikram</FirstName>
    <LastName>singh</LastName>
    <CompanyName>Pw</CompanyName>
    <Country>United Kingdom</Country>
    <County>test</County>
    <Currency />
  </sbBOAttrs>
  <sbContacts_RV></sbContacts_RV>
</sbCommContent>
**************************** IsMarketing End ***************************





************** IsMarketing Start *************** 3/13/2017 7:17:53 PM ************


<sbCommContent>
  <sbBOName>Person</sbBOName>
  <sbBOAttrs>
    <EmailLogin>test123'$@abc.com</EmailLogin>
    <FirstName>vikram</FirstName>
    <LastName>singh</LastName>
    <CompanyName>Pw</CompanyName>
    <Country>United Kingdom</Country>
    <County>test</County>
    <Currency />
  </sbBOAttrs>
  <sbContacts_RV></sbContacts_RV>
</sbCommContent>
**************************** IsMarketing End ***************************





************** IsMarketing Start *************** 3/13/2017 7:30:00 PM ************


<sbCommContent>
  <sbBOName>Person</sbBOName>
  <sbBOAttrs>
    <EmailLogin>test'abc789@powerweave.com</EmailLogin>
    <FirstName>vikram</FirstName>
    <LastName>singh</LastName>
    <CompanyName>test</CompanyName>
    <Country>United Kingdom</Country>
    <County>test</County>
    <Currency />
  </sbBOAttrs>
  <sbContacts_RV></sbContacts_RV>
</sbCommContent>
**************************** IsMarketing End ***************************





************** IsMarketing Start *************** 3/13/2017 7:30:03 PM ************


<sbCommContent>
  <sbBOName>Person</sbBOName>
  <sbBOAttrs>
    <EmailLogin>test'abc789@powerweave.com</EmailLogin>
    <FirstName>vikram</FirstName>
    <LastName>singh</LastName>
    <CompanyName>test</CompanyName>
    <Country>United Kingdom</Country>
    <County>test</County>
    <Currency />
  </sbBOAttrs>
  <sbContacts_RV></sbContacts_RV>
</sbCommContent>
**************************** IsMarketing End ***************************





************** IsMarketing Start *************** 3/13/2017 7:30:05 PM ************


<sbCommContent>
  <sbBOName>Person</sbBOName>
  <sbBOAttrs>
    <EmailLogin>test'abc789@powerweave.com</EmailLogin>
    <FirstName>vikram</FirstName>
    <LastName>singh</LastName>
    <CompanyName>test</CompanyName>
    <Country>United Kingdom</Country>
    <County>test</County>
    <Currency />
  </sbBOAttrs>
  <sbContacts_RV></sbContacts_RV>
</sbCommContent>
**************************** IsMarketing End ***************************





************** IsMarketing Start *************** 05/15/2017 12:55:43 PM ************


<sbCommContent>
  <sbBOName>Person</sbBOName>
  <sbBOAttrs>
    <EmailLogin>shriganesh.singh@powerweave.com</EmailLogin>
    <FirstName>Shriganesh</FirstName>
    <LastName>Singh</LastName>
    <CompanyName>POWERWEAVE LIVE</CompanyName>
    <Country>United Kingdom</Country>
    <County>POWERWEAVE LIVE</County>
    <Currency>£</Currency>
  </sbBOAttrs>
  <sbContacts_RV></sbContacts_RV>
</sbCommContent>
**************************** IsMarketing End ***************************





************** IsMarketing Start *************** 05/15/2017 5:44:56 PM ************


<sbCommContent>
  <sbBOName>Person</sbBOName>
  <sbBOAttrs>
    <EmailLogin>Vivek.mishra1@powerweave.com</EmailLogin>
    <FirstName>Vivek</FirstName>
    <LastName>Mishra</LastName>
    <CompanyName>powerweave live</CompanyName>
    <Country>United Kingdom</Country>
    <County>powerweave live</County>
    <Currency>$</Currency>
  </sbBOAttrs>
  <sbContacts_RV></sbContacts_RV>
</sbCommContent>
**************************** IsMarketing End ***************************





************** IsMarketing Start *************** 05/15/2017 5:45:17 PM ************


<sbCommContent>
  <sbBOName>Person</sbBOName>
  <sbBOAttrs>
    <EmailLogin>Vivek.mishra1@powerweave.com</EmailLogin>
    <FirstName>Vivek</FirstName>
    <LastName>Mishra</LastName>
    <CompanyName>powerweave live</CompanyName>
    <Country>United Kingdom</Country>
    <County>powerweave live</County>
    <Currency></Currency>
  </sbBOAttrs>
  <sbContacts_RV></sbContacts_RV>
</sbCommContent>
**************************** IsMarketing End ***************************





************** IsMarketing Start *************** 05/15/2017 5:45:23 PM ************


<sbCommContent>
  <sbBOName>Person</sbBOName>
  <sbBOAttrs>
    <EmailLogin>Vivek.mishra1@powerweave.com</EmailLogin>
    <FirstName>Vivek</FirstName>
    <LastName>Mishra</LastName>
    <CompanyName>powerweave live</CompanyName>
    <Country>United Kingdom</Country>
    <County>powerweave live</County>
    <Currency></Currency>
  </sbBOAttrs>
  <sbContacts_RV></sbContacts_RV>
</sbCommContent>
**************************** IsMarketing End ***************************


