On 05/10/2017 7:26:12 PM,
Message: User Session NOT NULL s.s11@powerweave.com
-------------------------------------------------------------------------------
On 05/10/2017 7:27:31 PM,
Message: User Session NOT NULL s.s11@powerweave.com
-------------------------------------------------------------------------------
