On 05/05/2017 2:59:47 PM,
Message: User Session NOT NULL s.s7@ba.com
-------------------------------------------------------------------------------
On 05/05/2017 2:59:50 PM,
Message: User Session NOT NULL s.s7@ba.com
-------------------------------------------------------------------------------
On 05/05/2017 3:01:48 PM,
Message: User Session NOT NULL s.s7@ba.com
-------------------------------------------------------------------------------
On 05/05/2017 3:25:06 PM,
Message: User Session NOT NULL s.s8@ba.com
-------------------------------------------------------------------------------
On 05/05/2017 3:25:18 PM,
Message: User Session NOT NULL s.s8@ba.com
-------------------------------------------------------------------------------
On 05/05/2017 3:25:38 PM,
Message: User Session NOT NULL s.s8@ba.com
-------------------------------------------------------------------------------
On 05/05/2017 3:25:55 PM,
Message: User Session NOT NULL s.s8@ba.com
-------------------------------------------------------------------------------
On 05/05/2017 3:36:06 PM,
Message: User Session NOT NULL s.s8@ba.com
-------------------------------------------------------------------------------
On 05/05/2017 3:36:11 PM,
Message: User Session NOT NULL s.s8@ba.com
-------------------------------------------------------------------------------
