On 3/7/2017 2:19:28 PM,
Message: url
-------------------------------------------------------------------------------
On 3/7/2017 2:20:06 PM,
Message: urlhttp://localhost:7482/login/login.aspx
-------------------------------------------------------------------------------
On 3/7/2017 2:20:17 PM,
Message: urlhttp://localhost:7482/login/login.aspx
-------------------------------------------------------------------------------
On 3/7/2017 2:22:07 PM,
Message: url
-------------------------------------------------------------------------------
On 3/7/2017 2:22:20 PM,
Message: urlhttp://localhost:7482/index
-------------------------------------------------------------------------------
On 3/7/2017 2:22:58 PM,
Message: urlhttp://localhost:7482/search/mob10009%20-%20mobil%201%20working%20jacket
-------------------------------------------------------------------------------
On 3/7/2017 2:23:03 PM,
Message: urlhttp://localhost:7482/search/mob10009%20-%20mobil%201%20working%20jacket
-------------------------------------------------------------------------------
On 3/7/2017 7:12:33 PM,
Message: url
-------------------------------------------------------------------------------
On 3/7/2017 7:43:44 PM,
Message: urlhttp://localhost:7482/login/login.aspx
-------------------------------------------------------------------------------
