On 03/26/2017 3:01:25 PM,
Message: url
-------------------------------------------------------------------------------
On 03/26/2017 3:01:43 PM,
Message: Before calling Login_UserLogin.UpdateBasketSessionProducts() in SaveAddressDetails()
-------------------------------------------------------------------------------
On 03/26/2017 3:01:44 PM,
Message: Before calling Login_UserLogin.UpdateBasketSessionProducts() in SaveAddressDetails()
-------------------------------------------------------------------------------
On 03/26/2017 3:01:44 PM,
Message: url
-------------------------------------------------------------------------------
On 03/26/2017 3:01:50 PM,
Message: url
-------------------------------------------------------------------------------
On 03/26/2017 3:02:00 PM,
Message: urlhttp://localhost:7482/index
-------------------------------------------------------------------------------
On 03/26/2017 3:02:14 PM,
Message: urlhttp://localhost:7482/category/apparel
-------------------------------------------------------------------------------
On 03/26/2017 3:03:10 PM,
Message: urlhttp://localhost:7482/details/apparel/ind0008_collegiate%20washed%20cap
-------------------------------------------------------------------------------
On 03/26/2017 3:03:16 PM,
Message: urlhttp://localhost:7482/details/apparel/ind0008_collegiate%20washed%20cap
-------------------------------------------------------------------------------
On 03/26/2017 3:03:55 PM,
Message: urlhttp://localhost:7482/details/apparel/ind0008_collegiate%20washed%20cap
-------------------------------------------------------------------------------
On 03/26/2017 3:05:29 PM,
Message: url
-------------------------------------------------------------------------------
On 03/26/2017 3:05:50 PM,
Message: Before calling Login_UserLogin.UpdateBasketSessionProducts() in SaveAddressDetails()
-------------------------------------------------------------------------------
On 03/26/2017 3:05:50 PM,
Message: Before calling Login_UserLogin.UpdateBasketSessionProducts() in SaveAddressDetails()
-------------------------------------------------------------------------------
On 03/26/2017 3:05:51 PM,
Message: url
-------------------------------------------------------------------------------
On 03/26/2017 3:06:01 PM,
Message: url
-------------------------------------------------------------------------------
On 03/26/2017 3:06:21 PM,
Message: urlhttp://localhost:7482/index
-------------------------------------------------------------------------------
On 03/26/2017 3:06:34 PM,
Message: urlhttp://localhost:7482/category/apparel
-------------------------------------------------------------------------------
On 03/26/2017 3:06:42 PM,
Message: urlhttp://localhost:7482/category/apparel
-------------------------------------------------------------------------------
On 03/26/2017 3:06:54 PM,
Message: urlhttp://localhost:7482/details/apparel/ind0008_collegiate%20washed%20cap
-------------------------------------------------------------------------------
On 03/26/2017 3:07:01 PM,
Message: urlhttp://localhost:7482/details/apparel/ind0008_collegiate%20washed%20cap
-------------------------------------------------------------------------------
