On 2/28/2017 3:16:08 PM,
Message: url
-------------------------------------------------------------------------------
On 2/28/2017 3:26:14 PM,
Message: url
-------------------------------------------------------------------------------
On 2/28/2017 3:41:18 PM,
Message: url
-------------------------------------------------------------------------------
