On 2/6/2017 4:30:45 PM,
Message: http://localhost:7482/login/login.aspx
-------------------------------------------------------------------------------
On 2/6/2017 4:30:45 PM,
Message: http://bav2.cwwws.com/new2
-------------------------------------------------------------------------------
On 2/6/2017 4:30:54 PM,
Message: http://localhost:7482/category/apparel
-------------------------------------------------------------------------------
On 2/6/2017 4:30:54 PM,
Message: http://bav2.cwwws.com/new2
-------------------------------------------------------------------------------
On 2/6/2017 4:31:02 PM,
Message: http://localhost:7482/details/apparel/vx132_vauxhall%20black%203%20in%201%20jacket%20-%20xxl
-------------------------------------------------------------------------------
On 2/6/2017 4:31:02 PM,
Message: http://bav2.cwwws.com/new2
-------------------------------------------------------------------------------
