On 2/8/2017 5:02:22 PM,
Message: http://localhost:7482/login/login.aspx
-------------------------------------------------------------------------------
On 2/8/2017 5:02:22 PM,
Message: http://bav2.cwwws.com/new2
-------------------------------------------------------------------------------
On 2/8/2017 5:02:48 PM,
Message: http://localhost:7482/login/login.aspx
-------------------------------------------------------------------------------
On 2/8/2017 5:02:48 PM,
Message: http://bav2.cwwws.com/new2
-------------------------------------------------------------------------------
On 2/8/2017 5:03:21 PM,
Message: Payment Page Load Start
-------------------------------------------------------------------------------
On 2/8/2017 5:03:21 PM,
Message: Inside Session[User] != null
-------------------------------------------------------------------------------
On 2/8/2017 5:03:21 PM,
Message: Before calling BindResourceData()
-------------------------------------------------------------------------------
On 2/8/2017 5:03:21 PM,
Message: Inside BindResourceData()
-------------------------------------------------------------------------------
On 2/8/2017 5:03:21 PM,
Message: Inside lstStaticPageBE != null && lstStaticPageBE.Count > 0 in BindResourceData()
-------------------------------------------------------------------------------
On 2/8/2017 5:03:21 PM,
Message: Exiting BindResourceData()
-------------------------------------------------------------------------------
On 2/8/2017 5:03:21 PM,
Message: After calling BindResourceData()
-------------------------------------------------------------------------------
On 2/8/2017 5:03:21 PM,
Message: Before calling GetStoreDetails()
-------------------------------------------------------------------------------
On 2/8/2017 5:03:21 PM,
Message: After calling GetStoreDetails()
-------------------------------------------------------------------------------
On 2/8/2017 5:03:21 PM,
Message: InSide objStoreBE != null condition
-------------------------------------------------------------------------------
On 2/8/2017 5:03:21 PM,
Message: Before assigning bBackOrderAllowed
-------------------------------------------------------------------------------
On 2/8/2017 5:03:21 PM,
Message: Inside setting dvApplyCode.Visible = true
-------------------------------------------------------------------------------
On 2/8/2017 5:03:21 PM,
Message: Inside setting dvApplyGiftCertificate.Visible = true for local
-------------------------------------------------------------------------------
On 2/8/2017 5:03:21 PM,
Message: Inside setting dvApplyGiftCertificate.Visible = false
-------------------------------------------------------------------------------
On 2/8/2017 5:03:21 PM,
Message: After fetching sc_paymentgateway feature
-------------------------------------------------------------------------------
On 2/8/2017 5:03:21 PM,
Message: Inside objFeatures != null
-------------------------------------------------------------------------------
On 2/8/2017 5:03:21 PM,
Message: After fetching objLstFeatureValueBE value
-------------------------------------------------------------------------------
On 2/8/2017 5:03:21 PM,
Message: Inside objLstFeatureValueBE != null
-------------------------------------------------------------------------------
On 2/8/2017 5:03:21 PM,
Message: After fetching objFeatureValueBE value
-------------------------------------------------------------------------------
On 2/8/2017 5:03:21 PM,
Message: Inside Session[GuestUser] == null
-------------------------------------------------------------------------------
On 2/8/2017 5:03:21 PM,
Message: Before calling ShoppingCartBL.GetBasketProductsData() for Reg User
-------------------------------------------------------------------------------
On 2/8/2017 5:03:22 PM,
Message: Inside lstShoppingBE != null && lstShoppingBE.Count > 0 condition
-------------------------------------------------------------------------------
On 2/8/2017 5:03:22 PM,
Message: Before calling BindDeliveryAddress()
-------------------------------------------------------------------------------
On 2/8/2017 5:03:22 PM,
Message: Inside BindDeliveryAddress()
-------------------------------------------------------------------------------
On 2/8/2017 5:03:22 PM,
Message: Inside Session[GuestUser] == null
-------------------------------------------------------------------------------
On 2/8/2017 5:03:22 PM,
Message: Exiting BindDeliveryAddress()
-------------------------------------------------------------------------------
On 2/8/2017 5:03:22 PM,
Message: After calling BindDeliveryAddress()
-------------------------------------------------------------------------------
On 2/8/2017 5:03:22 PM,
Message: Before calling BindPaymentTypes()
-------------------------------------------------------------------------------
On 2/8/2017 5:03:22 PM,
Message: Inside BindPaymentTypes()
-------------------------------------------------------------------------------
On 2/8/2017 5:03:22 PM,
Message: After calling StoreBL.GetStoreDetails()
-------------------------------------------------------------------------------
On 2/8/2017 5:03:22 PM,
Message: After assingning objFeatures in BindPaymentTypes()
-------------------------------------------------------------------------------
On 2/8/2017 5:03:22 PM,
Message: After assingning objLstFeatureValueBE in BindPaymentTypes()
-------------------------------------------------------------------------------
On 2/8/2017 5:03:22 PM,
Message: After assingning objFeatureValueBE in BindPaymentTypes()
-------------------------------------------------------------------------------
On 2/8/2017 5:03:22 PM,
Message: Before calling ShoppingCartBL.GetAllPaymentTypesByLanguageID() in BindPaymentTypes()
-------------------------------------------------------------------------------
On 2/8/2017 5:03:22 PM,
Message: After calling ShoppingCartBL.GetAllPaymentTypesByLanguageID() in BindPaymentTypes()
-------------------------------------------------------------------------------
On 2/8/2017 5:03:23 PM,
Message: After DataBinding ddlPaymentTypes in BindPaymentTypes()
-------------------------------------------------------------------------------
On 2/8/2017 5:03:23 PM,
Message: After calling BindPaymentTypes()
-------------------------------------------------------------------------------
On 2/8/2017 5:03:23 PM,
Message: Before calling BindCountryDropDown()
-------------------------------------------------------------------------------
On 2/8/2017 5:03:23 PM,
Message:  Inside BindCountryDropDown()
-------------------------------------------------------------------------------
On 2/8/2017 5:03:24 PM,
Message: Before assingning DataSource to ddlDCountry in BindCountryDropDown()
-------------------------------------------------------------------------------
On 2/8/2017 5:03:24 PM,
Message: Before DataBind event of ddlDCountry in BindCountryDropDown()
-------------------------------------------------------------------------------
On 2/8/2017 5:03:24 PM,
Message: Exiting BindCountryDropDown()
-------------------------------------------------------------------------------
On 2/8/2017 5:03:24 PM,
Message: After calling BindCountryDropDown()
-------------------------------------------------------------------------------
On 2/8/2017 5:03:24 PM,
Message: Inside Session[GuestUser] == null of page load()
-------------------------------------------------------------------------------
On 2/8/2017 5:03:24 PM,
Message: Inside rptBasketListing_ItemDataBound
-------------------------------------------------------------------------------
On 2/8/2017 5:03:24 PM,
Message: Inside rptBasketListing_ItemDataBound
-------------------------------------------------------------------------------
On 2/8/2017 5:03:24 PM,
Message: Inside rptBasketListing_ItemDataBound
-------------------------------------------------------------------------------
On 2/8/2017 5:03:24 PM,
Message: Inside rptBasketListing_ItemDataBound
-------------------------------------------------------------------------------
On 2/8/2017 5:03:24 PM,
Message: Inside rptBasketListing_ItemDataBound
-------------------------------------------------------------------------------
On 2/8/2017 5:03:24 PM,
Message: Inside rptBasketListing_ItemDataBound
-------------------------------------------------------------------------------
On 2/8/2017 5:03:24 PM,
Message: Inside rptBasketListing_ItemDataBound
-------------------------------------------------------------------------------
On 2/8/2017 5:03:24 PM,
Message: Inside rptBasketListing_ItemDataBound
-------------------------------------------------------------------------------
On 2/8/2017 5:03:24 PM,
Message: Inside rptBasketListing_ItemDataBound
-------------------------------------------------------------------------------
On 2/8/2017 5:03:24 PM,
Message: Inside rptBasketListing_ItemDataBound
-------------------------------------------------------------------------------
On 2/8/2017 5:03:24 PM,
Message: Inside rptBasketListing_ItemDataBound
-------------------------------------------------------------------------------
On 2/8/2017 5:03:24 PM,
Message: Inside rptBasketListing_ItemDataBound
-------------------------------------------------------------------------------
On 2/8/2017 5:03:24 PM,
Message: Inside rptBasketListing_ItemDataBound
-------------------------------------------------------------------------------
On 2/8/2017 5:03:24 PM,
Message: Inside rptBasketListing_ItemDataBound
-------------------------------------------------------------------------------
On 2/8/2017 5:03:24 PM,
Message: Inside rptBasketListing_ItemDataBound
-------------------------------------------------------------------------------
On 2/8/2017 5:03:24 PM,
Message: Inside rptBasketListing_ItemDataBound
-------------------------------------------------------------------------------
On 2/8/2017 5:03:24 PM,
Message: Inside rptBasketListing_ItemDataBound
-------------------------------------------------------------------------------
On 2/8/2017 5:03:24 PM,
Message: Inside rptBasketListing_ItemDataBound
-------------------------------------------------------------------------------
On 2/8/2017 5:03:24 PM,
Message: Inside e.Item.ItemType == ListItemType.Footer rptBasketListing_ItemDataBound
-------------------------------------------------------------------------------
On 2/8/2017 5:03:24 PM,
Message: Exiting rptBasketListing_ItemDataBound
-------------------------------------------------------------------------------
On 2/8/2017 5:03:24 PM,
Message: Before Calling BindUserAddress() of page load()
-------------------------------------------------------------------------------
On 2/8/2017 5:03:24 PM,
Message: Inside BindUserAddress()
-------------------------------------------------------------------------------
On 2/8/2017 5:03:24 PM,
Message: Inside Session[User] != null in BindUserAddress()
-------------------------------------------------------------------------------
On 2/8/2017 5:03:24 PM,
Message: Assigining UserdetailLanguageWise.EmailId in BindUserAddress()
-------------------------------------------------------------------------------
On 2/8/2017 5:03:24 PM,
Message: Assigining UserdetailLanguageWise.LanguageId in BindUserAddress()
-------------------------------------------------------------------------------
On 2/8/2017 5:03:24 PM,
Message: Assigining UserdetailLanguageWise.CurrencyId in BindUserAddress()
-------------------------------------------------------------------------------
On 2/8/2017 5:03:24 PM,
Message: Before Calling UserBL.GetSingleObjectDetails in BindUserAddress()
-------------------------------------------------------------------------------
On 2/8/2017 5:03:24 PM,
Message: Inside Session[GuestUser] == null in BindUserAddress()
-------------------------------------------------------------------------------
On 2/8/2017 5:03:24 PM,
Message: Assigining UserdetailLanguageWise.UserPreDefinedColumns in BindUserAddress()
-------------------------------------------------------------------------------
On 2/8/2017 5:03:24 PM,
Message: Inside case predefinedcolumn1: in BindUserAddress()
-------------------------------------------------------------------------------
On 2/8/2017 5:03:24 PM,
Message: Inside case predefinedcolumn3: in BindUserAddress()
-------------------------------------------------------------------------------
On 2/8/2017 5:03:24 PM,
Message: Inside case predefinedcolumn4: in BindUserAddress()
-------------------------------------------------------------------------------
On 2/8/2017 5:03:24 PM,
Message: Inside case predefinedcolumn5: in BindUserAddress()
-------------------------------------------------------------------------------
On 2/8/2017 5:03:24 PM,
Message: Inside case predefinedcolumn6: in BindUserAddress()
-------------------------------------------------------------------------------
On 2/8/2017 5:03:24 PM,
Message: Inside case predefinedcolumn7: in BindUserAddress()
-------------------------------------------------------------------------------
On 2/8/2017 5:03:24 PM,
Message: Inside case predefinedcolumn9: in BindUserAddress()
-------------------------------------------------------------------------------
On 2/8/2017 5:03:24 PM,
Message: After Calling BindUserAddress() of page load()
-------------------------------------------------------------------------------
On 2/8/2017 5:03:24 PM,
Message: Before Calling SetFreightValues() of page load()
-------------------------------------------------------------------------------
On 2/8/2017 5:03:27 PM,
Message: Inside else lstFreightBE[0].IsStandard in SetFreightValues()
-------------------------------------------------------------------------------
On 2/8/2017 5:03:27 PM,
Message: Inside SetFreightValues()
-------------------------------------------------------------------------------
On 2/8/2017 5:03:27 PM,
Message: Before Calling CalculateFreight() in SetFreightValues()
-------------------------------------------------------------------------------
On 2/8/2017 5:03:27 PM,
Message: Inside CalculateFreight() CalculateFreight()
-------------------------------------------------------------------------------
On 2/8/2017 5:03:27 PM,
Message: Before Calling CountryBL.GetAllCountries() CalculateFreight()
-------------------------------------------------------------------------------
On 2/8/2017 5:03:28 PM,
Message: After Calling CountryBL.GetAllCountries() CalculateFreight()
-------------------------------------------------------------------------------
On 2/8/2017 5:03:28 PM,
Message: Before Calling StoreBL.GetStoreDetails() CalculateFreight()
-------------------------------------------------------------------------------
On 2/8/2017 5:03:28 PM,
Message: After Calling StoreBL.GetStoreDetails() CalculateFreight()
-------------------------------------------------------------------------------
On 2/8/2017 5:03:28 PM,
Message: Inside objStoreBE != null in CalculateFreight()
-------------------------------------------------------------------------------
On 2/8/2017 5:03:28 PM,
Message: Before Calling FreightManagementBL.GetAllFreightMultiplerCurrency() CalculateFreight()
-------------------------------------------------------------------------------
On 2/8/2017 5:03:28 PM,
Message: Before Calling FreightManagementBL.GetAllFreightMultiplerCurrency() CalculateFreight()
-------------------------------------------------------------------------------
On 2/8/2017 5:03:28 PM,
Message: Inside lstUser != null && lstUser.UserId != 0 in CalculateFreight()
-------------------------------------------------------------------------------
On 2/8/2017 5:03:28 PM,
Message: Before calling ShoppingCartBL.GetBasketProductsData in CalculateFreight()
-------------------------------------------------------------------------------
On 2/8/2017 5:03:29 PM,
Message: Exiting calling ShoppingCartBL.GetBasketProductsData in CalculateFreight()
-------------------------------------------------------------------------------
On 2/8/2017 5:03:29 PM,
Message: Before calling FreightManagementBL.GetFreightDetails in CalculateFreight()
-------------------------------------------------------------------------------
On 2/8/2017 5:03:29 PM,
Message: After calling FreightManagementBL.GetFreightDetails in CalculateFreight()
-------------------------------------------------------------------------------
On 2/8/2017 5:03:29 PM,
Message: Exiting objStoreBE != null in CalculateFreight()
-------------------------------------------------------------------------------
On 2/8/2017 5:03:29 PM,
Message: After Calling CalculateFreight() in SetFreightValues()
-------------------------------------------------------------------------------
On 2/8/2017 5:03:29 PM,
Message: Before Calling CountryBL.GetAllCountries() in SetFreightValues()
-------------------------------------------------------------------------------
On 2/8/2017 5:03:30 PM,
Message: Inside !string.Equals(ddlDCountry.SelectedValue, 0) in SetFreightValues()
-------------------------------------------------------------------------------
On 2/8/2017 5:03:30 PM,
Message: Inside lstFreightBE != null && lstFreightBE.Count > 0 in SetFreightValues()
-------------------------------------------------------------------------------
On 2/8/2017 5:03:30 PM,
Message: Inside lstFreightBE[0].IsStandard in SetFreightValues()
-------------------------------------------------------------------------------
On 2/8/2017 5:03:30 PM,
Message: Inside else lstFreightBE[0].IsExpress in SetFreightValues()
-------------------------------------------------------------------------------
On 2/8/2017 5:03:30 PM,
Message: Inside else lstFreightBE[0].IsExpress in SetFreightValues()
-------------------------------------------------------------------------------
On 2/8/2017 5:03:30 PM,
Message: Inside !string.IsNullOrEmpty(lstFreightBE[0].SZPrice) in SetFreightValues()
-------------------------------------------------------------------------------
On 2/8/2017 5:03:30 PM,
Message: Inside !string.IsNullOrEmpty(lstFreightBE[0].EZPrice) in SetFreightValues()
-------------------------------------------------------------------------------
On 2/8/2017 5:03:30 PM,
Message: Inside Else !string.IsNullOrEmpty(lstFreightBE[0].PsPrice) in SetFreightValues()
-------------------------------------------------------------------------------
On 2/8/2017 5:03:30 PM,
Message: Inside Convert.ToDouble(lstFreightBE[0].SZPrice) >= 0 in SetFreightValues()
-------------------------------------------------------------------------------
On 2/8/2017 5:03:30 PM,
Message: Inside Convert.ToDouble(lstFreightBE[0].EZPrice) >= 0 in SetFreightValues()
-------------------------------------------------------------------------------
On 2/8/2017 5:03:30 PM,
Message: Inside !string.IsNullOrEmpty(lstFreightBE[0].SZPrice) in SetFreightValues()
-------------------------------------------------------------------------------
On 2/8/2017 5:03:30 PM,
Message: Inside !string.IsNullOrEmpty(lstFreightBE[0].EZPrice) in SetFreightValues()
-------------------------------------------------------------------------------
On 2/8/2017 5:03:30 PM,
Message: Before calling CalculateTax in SetFreightValues()
-------------------------------------------------------------------------------
On 2/8/2017 5:03:33 PM,
Message: Inside CalculateTax()
-------------------------------------------------------------------------------
On 2/8/2017 5:03:33 PM,
Message: After calling StoreBL.GetStoreDetails() in CalculateTax()
-------------------------------------------------------------------------------
On 2/8/2017 5:03:33 PM,
Message: Inside objStoreBE != null && objStoreBE.IsBASYS In CalculateTax
-------------------------------------------------------------------------------
On 2/8/2017 5:03:33 PM,
Message: Before calling CountryBL.GetAllCountries() In CalculateTax
-------------------------------------------------------------------------------
On 2/8/2017 5:03:34 PM,
Message: Before calling ShoppingCartBL.GetBasketProductsData for Reg User In CalculateTax
-------------------------------------------------------------------------------
On 2/8/2017 5:03:37 PM,
Message: Before calling wsTax.getTaxDetails for Standard In CalculateTax
-------------------------------------------------------------------------------
On 2/8/2017 5:03:37 PM,
Message: Inside GetTaxDetails()
-------------------------------------------------------------------------------
On 2/8/2017 5:03:37 PM,
Message: Before Calling LIVE TAX Web service()
-------------------------------------------------------------------------------
On 2/8/2017 5:03:39 PM,
Message: After Calling LIVE TAX Web service()
-------------------------------------------------------------------------------
On 2/8/2017 5:03:39 PM,
Message: Exiting GetTaxDetails()
-------------------------------------------------------------------------------
On 2/8/2017 5:03:39 PM,
Message: After calling wsTax.getTaxDetails for Standard In CalculateTax
-------------------------------------------------------------------------------
On 2/8/2017 5:03:39 PM,
Message: Before calling wsTax.getTaxDetails for Express In CalculateTax
-------------------------------------------------------------------------------
On 2/8/2017 5:03:39 PM,
Message: Inside GetTaxDetails()
-------------------------------------------------------------------------------
On 2/8/2017 5:03:39 PM,
Message: Before Calling LIVE TAX Web service()
-------------------------------------------------------------------------------
On 2/8/2017 5:03:40 PM,
Message: After Calling LIVE TAX Web service()
-------------------------------------------------------------------------------
On 2/8/2017 5:03:40 PM,
Message: Exiting GetTaxDetails()
-------------------------------------------------------------------------------
On 2/8/2017 5:03:40 PM,
Message: After calling wsTax.getTaxDetails for Express In CalculateTax
-------------------------------------------------------------------------------
On 2/8/2017 5:03:40 PM,
Message: Before calling wsTax.getTaxDetails for Express In CalculateTax
-------------------------------------------------------------------------------
On 2/8/2017 5:03:40 PM,
Message: Inside GetTaxDetails()
-------------------------------------------------------------------------------
On 2/8/2017 5:03:40 PM,
Message: Before Calling LIVE TAX Web service()
-------------------------------------------------------------------------------
On 2/8/2017 5:03:41 PM,
Message: After Calling LIVE TAX Web service()
-------------------------------------------------------------------------------
On 2/8/2017 5:03:41 PM,
Message: Exiting GetTaxDetails()
-------------------------------------------------------------------------------
On 2/8/2017 5:03:41 PM,
Message: After calling wsTax.getTaxDetails for Express In CalculateTax
-------------------------------------------------------------------------------
On 2/8/2017 5:03:41 PM,
Message: After calling CalculateTax in SetFreightValues()
-------------------------------------------------------------------------------
On 2/8/2017 5:03:41 PM,
Message: Exiting SetFreightvalues()
-------------------------------------------------------------------------------
On 2/8/2017 5:03:41 PM,
Message: After Calling SetFreightValues() of page load()
-------------------------------------------------------------------------------
On 2/8/2017 5:03:41 PM,
Message: Before Calling BindPriceDetails() of page load()
-------------------------------------------------------------------------------
On 2/8/2017 5:03:41 PM,
Message: Inside BindPriceDetails()
-------------------------------------------------------------------------------
On 2/8/2017 5:03:41 PM,
Message: Inside rbService1.Checked in BindPriceDetails()
-------------------------------------------------------------------------------
On 2/8/2017 5:03:41 PM,
Message: Exiting rbService1.Checked in BindPriceDetails()
-------------------------------------------------------------------------------
On 2/8/2017 5:03:41 PM,
Message: Exiting BindPriceDetails()
-------------------------------------------------------------------------------
On 2/8/2017 5:03:41 PM,
Message: After Calling BindPriceDetails() of page load()
-------------------------------------------------------------------------------
On 2/8/2017 5:03:41 PM,
Message: Before Calling BindUDFFields() of page load()
-------------------------------------------------------------------------------
On 2/8/2017 5:03:41 PM,
Message: Inside BindUDFFields()
-------------------------------------------------------------------------------
On 2/8/2017 5:03:41 PM,
Message: Before calling ShoppingCartBL.GetAllPaymentTypesByLanguageID() in BindUDFFields()
-------------------------------------------------------------------------------
On 2/8/2017 5:03:41 PM,
Message: Before calling ShoppingCartBL.GetAllPaymentTypesByLanguageID() in BindUDFFields()
-------------------------------------------------------------------------------
On 2/8/2017 5:03:41 PM,
Message: Inside lstPaymentTypes.Count > 0 in BindUDFFields()
-------------------------------------------------------------------------------
On 2/8/2017 5:03:42 PM,
Message: Inside lstObj != null && lstObj.Count > 0 in BindUDFFields()
-------------------------------------------------------------------------------
On 2/8/2017 5:03:42 PM,
Message: Exiting BindUDFFields()
-------------------------------------------------------------------------------
On 2/8/2017 5:03:42 PM,
Message: After Calling BindUDFFields() of page load()
-------------------------------------------------------------------------------
On 2/8/2017 5:03:42 PM,
Message: Before Calling BindStaticText() of page load()
-------------------------------------------------------------------------------
On 2/8/2017 5:03:42 PM,
Message: Inside BindStaticText()
-------------------------------------------------------------------------------
On 2/8/2017 5:03:42 PM,
Message: Before calling StaticPageManagementBL.GetAllDetails in BindStaticText()
-------------------------------------------------------------------------------
On 2/8/2017 5:03:42 PM,
Message: After calling StaticPageManagementBL.GetAllDetails in BindStaticText()
-------------------------------------------------------------------------------
On 2/8/2017 5:03:42 PM,
Message: Inside lst != null && lst.Count > 0 in BindStaticText()
-------------------------------------------------------------------------------
On 2/8/2017 5:03:42 PM,
Message: Before calling StaticTextKeyBL.GetAllKeys in BindStaticText()
-------------------------------------------------------------------------------
On 2/8/2017 5:03:42 PM,
Message: After calling StaticTextKeyBL.GetAllKeys in BindStaticText()
-------------------------------------------------------------------------------
On 2/8/2017 5:03:42 PM,
Message: Exiting BindStaticText()
-------------------------------------------------------------------------------
On 2/8/2017 5:03:42 PM,
Message: After Calling BindStaticText() of page load()
-------------------------------------------------------------------------------
On 2/8/2017 5:03:42 PM,
Message: http://localhost:7482/index
-------------------------------------------------------------------------------
On 2/8/2017 5:03:42 PM,
Message: http://bav2.cwwws.com/new2
-------------------------------------------------------------------------------
On 2/8/2017 5:04:52 PM,
Message: http://localhost:7482/checkout
-------------------------------------------------------------------------------
On 2/8/2017 5:04:52 PM,
Message: http://bav2.cwwws.com/new2
-------------------------------------------------------------------------------
On 2/8/2017 5:06:33 PM,
Message: http://localhost:7482/index
-------------------------------------------------------------------------------
On 2/8/2017 5:06:33 PM,
Message: http://bav2.cwwws.com/new2
-------------------------------------------------------------------------------
On 2/8/2017 6:36:15 PM,
Message: http://localhost:7482/signin
-------------------------------------------------------------------------------
On 2/8/2017 6:36:15 PM,
Message: http://bav2.cwwws.com/new2
-------------------------------------------------------------------------------
On 2/8/2017 6:36:39 PM,
Message: http://localhost:7482/signin
-------------------------------------------------------------------------------
On 2/8/2017 6:36:39 PM,
Message: http://bav2.cwwws.com/new2
-------------------------------------------------------------------------------
