On 04/04/2017 17:42:23,
Message: User Session NOT NULL LarryTestUser@brandaddition.com
-------------------------------------------------------------------------------
On 04/04/2017 17:42:25,
Message: User Session NOT NULL LarryTestUser@brandaddition.com
-------------------------------------------------------------------------------
On 04/04/2017 17:42:36,
Message: User Session NOT NULL LarryTestUser@brandaddition.com
-------------------------------------------------------------------------------
On 04/04/2017 17:43:19,
Message: User Session NOT NULL LarryTestUser@brandaddition.com
-------------------------------------------------------------------------------
On 04/04/2017 17:50:49,
Message: User Session NOT NULL LarryTestUser@brandaddition.com
-------------------------------------------------------------------------------
On 04/04/2017 17:50:59,
Message: User Session NOT NULL LarryTestUser@brandaddition.com
-------------------------------------------------------------------------------
On 04/04/2017 17:51:23,
Message: User Session NOT NULL LarryTestUser@brandaddition.com
-------------------------------------------------------------------------------
On 04/04/2017 17:51:54,
Message: User Session NOT NULL LarryTestUser@brandaddition.com
-------------------------------------------------------------------------------
On 04/04/2017 17:52:17,
Message: User Session NOT NULL LarryTestUser@brandaddition.com
-------------------------------------------------------------------------------
On 04/04/2017 17:52:42,
Message: User Session NOT NULL LarryTestUser@brandaddition.com
-------------------------------------------------------------------------------
On 04/04/2017 17:55:17,
Message: User Session NOT NULL LarryTestUser@brandaddition.com
-------------------------------------------------------------------------------
On 04/04/2017 17:55:39,
Message: User Session NOT NULL LarryTestUser@brandaddition.com
-------------------------------------------------------------------------------
On 04/04/2017 17:57:50,
Message: User Session NOT NULL LarryTestUser@brandaddition.com
-------------------------------------------------------------------------------
On 04/04/2017 17:58:09,
Message: User Session NOT NULL LarryTestUser@brandaddition.com
-------------------------------------------------------------------------------
On 04/04/2017 18:00:33,
Message: User Session NOT NULL LarryTestUser@brandaddition.com
-------------------------------------------------------------------------------
On 04/04/2017 18:00:51,
Message: User Session NOT NULL LarryTestUser@brandaddition.com
-------------------------------------------------------------------------------
On 04/04/2017 18:01:06,
Message: User Session NOT NULL LarryTestUser@brandaddition.com
-------------------------------------------------------------------------------
