

-----------------------8/3/2016 12:10:43 PM--------------------------------------
sanchit.patne@powerweave.com has Logged-In Control Panel from the IP 172.20.4.21
-----------------------End-------------------------------------------------------------


-----------------------8/3/2016 2:18:30 PM--------------------------------------
sanchit.patne@powerweave.com has Logged-In Control Panel from the IP 172.20.4.21
-----------------------End-------------------------------------------------------------


-----------------------8/3/2016 2:26:50 PM--------------------------------------
sanchit.patne@powerweave.com has Logged-In Control Panel from the IP 172.20.4.21
-----------------------End-------------------------------------------------------------


-----------------------8/3/2016 7:42:37 PM--------------------------------------
sanchit.patne@powerweave.com has Logged-In Control Panel from the IP 172.20.4.21
-----------------------End-------------------------------------------------------------


-----------------------8/3/2016 9:05:46 PM--------------------------------------
sanchit.patne@powerweave.com has Logged-In Control Panel from the IP 172.20.4.21
-----------------------End-------------------------------------------------------------


-----------------------8/3/2016 9:13:00 PM--------------------------------------
sanchit.patne@powerweave.com has Logged-In Control Panel from the IP 172.20.4.21
-----------------------End-------------------------------------------------------------
