

-----------------------8/2/2016 12:44:39 PM--------------------------------------
sanchit.patne@powerweave.com has Logged-In Control Panel from the IP 172.20.4.21
-----------------------End-------------------------------------------------------------


-----------------------8/2/2016 12:45:59 PM--------------------------------------
sanchit.patne@powerweave.com has Logged-In Control Panel from the IP 172.20.4.21
-----------------------End-------------------------------------------------------------


-----------------------8/2/2016 2:17:07 PM--------------------------------------
sanchit.patne@powerweave.com has Logged-In Control Panel from the IP 172.20.4.21
-----------------------End-------------------------------------------------------------
