

-----------------------25-08-2016 15:01:31--------------------------------------
sanchit.patne@powerweave.com has Logged-In Control Panel from the IP 172.20.4.16
-----------------------End-------------------------------------------------------------


-----------------------25-08-2016 15:02:02--------------------------------------
sanchit.patne@powerweave.com has Logged-In Control Panel from the IP 172.20.4.16
-----------------------End-------------------------------------------------------------


-----------------------25-08-2016 15:02:28--------------------------------------
sanchit.patne@powerweave.com has Logged-In Control Panel from the IP 172.20.4.16
-----------------------End-------------------------------------------------------------


-----------------------25-08-2016 15:03:56--------------------------------------
sanchit.patne@powerweave.com has Logged-In Control Panel from the IP 172.20.4.16
-----------------------End-------------------------------------------------------------


-----------------------25-08-2016 15:04:59--------------------------------------
sanchit.patne@powerweave.com has Logged-In Control Panel from the IP 172.20.4.16
-----------------------End-------------------------------------------------------------


-----------------------25-08-2016 15:06:02--------------------------------------
sanchit.patne@powerweave.com has Logged-In Control Panel from the IP 172.20.4.16
-----------------------End-------------------------------------------------------------


-----------------------25-08-2016 15:07:25--------------------------------------
sanchit.patne@powerweave.com has Logged-In Control Panel from the IP 172.20.4.16
-----------------------End-------------------------------------------------------------


-----------------------25-08-2016 15:08:59--------------------------------------
sanchit.patne@powerweave.com has Logged-In Control Panel from the IP 172.20.4.16
-----------------------End-------------------------------------------------------------


-----------------------25-08-2016 15:09:00--------------------------------------
sanchit.patne@powerweave.com has Logged-In Control Panel from the IP 172.20.4.16
-----------------------End-------------------------------------------------------------


-----------------------25-08-2016 15:09:26--------------------------------------
sanchit.patne@powerweave.com has Logged-In Control Panel from the IP 172.20.4.16
-----------------------End-------------------------------------------------------------


-----------------------25-08-2016 15:12:47--------------------------------------
sanchit.patne@powerweave.com has Logged-In Control Panel from the IP 172.20.4.16
-----------------------End-------------------------------------------------------------


-----------------------25-08-2016 15:23:04--------------------------------------
sanchit.patne@powerweave.com has Logged-In Control Panel from the IP 172.20.4.16
-----------------------End-------------------------------------------------------------


-----------------------25-08-2016 15:28:16---------------------------------------------------------
sanchit.patne@powerweave.com has Updated 1 in the Manage CSS from  IP 172.20.4.16
-----------------------End--------------------------------------------------------------------------


-----------------------25-08-2016 15:28:16---------------------------------------------------------
sanchit.patne@powerweave.com has FilePath Z:\SNEHAL UT INTEGRATED VERSION\Store\\\CSS\animate.css in the Manage CSS from  IP 172.20.4.16
-----------------------End--------------------------------------------------------------------------


-----------------------25-08-2016 15:28:16---------------------------------------------------------
sanchit.patne@powerweave.com has Updated 2 in the Manage CSS from  IP 172.20.4.16
-----------------------End--------------------------------------------------------------------------


-----------------------25-08-2016 15:28:16---------------------------------------------------------
sanchit.patne@powerweave.com has BackUpFolderPath Z:\SNEHAL UT INTEGRATED VERSION\Store\\\CSS\backup in the Manage CSS from  IP 172.20.4.16
-----------------------End--------------------------------------------------------------------------


-----------------------25-08-2016 15:28:16---------------------------------------------------------
sanchit.patne@powerweave.com has 3 animate.css in the Manage CSS from  IP 172.20.4.16
-----------------------End--------------------------------------------------------------------------


-----------------------25-08-2016 15:28:16---------------------------------------------------------
sanchit.patne@powerweave.com has 7 Access to the path 'Z:\SNEHAL UT INTEGRATED VERSION\Store\CSS\animate.css' is denied. in the Manage CSS from  IP 172.20.4.16
-----------------------End--------------------------------------------------------------------------


-----------------------25-08-2016 15:28:48---------------------------------------------------------
sanchit.patne@powerweave.com has Updated 1 in the Manage CSS from  IP 172.20.4.16
-----------------------End--------------------------------------------------------------------------


-----------------------25-08-2016 15:28:49---------------------------------------------------------
sanchit.patne@powerweave.com has FilePath Z:\SNEHAL UT INTEGRATED VERSION\Store\\\CSS\animate.css in the Manage CSS from  IP 172.20.4.16
-----------------------End--------------------------------------------------------------------------


-----------------------25-08-2016 15:28:49---------------------------------------------------------
sanchit.patne@powerweave.com has Updated 2 in the Manage CSS from  IP 172.20.4.16
-----------------------End--------------------------------------------------------------------------


-----------------------25-08-2016 15:28:49---------------------------------------------------------
sanchit.patne@powerweave.com has BackUpFolderPath Z:\SNEHAL UT INTEGRATED VERSION\Store\\\CSS\backup in the Manage CSS from  IP 172.20.4.16
-----------------------End--------------------------------------------------------------------------


-----------------------25-08-2016 15:29:21---------------------------------------------------------
sanchit.patne@powerweave.com has 7 Access to the path 'Z:\SNEHAL UT INTEGRATED VERSION\Store\\\CSS\backup\animate.css' is denied. in the Manage CSS from  IP 172.20.4.16
-----------------------End--------------------------------------------------------------------------


-----------------------25-08-2016 15:32:28--------------------------------------
sanchit.patne@powerweave.com has Logged-In Control Panel from the IP 172.20.4.16
-----------------------End-------------------------------------------------------------


-----------------------25-08-2016 15:32:59---------------------------------------------------------
sanchit.patne@powerweave.com has Updated 1 in the Manage CSS from  IP 172.20.4.16
-----------------------End--------------------------------------------------------------------------


-----------------------25-08-2016 15:33:00---------------------------------------------------------
sanchit.patne@powerweave.com has FilePath Z:\SNEHAL UT INTEGRATED VERSION\Store\\\CSS\animate.css in the Manage CSS from  IP 172.20.4.16
-----------------------End--------------------------------------------------------------------------


-----------------------25-08-2016 15:33:00---------------------------------------------------------
sanchit.patne@powerweave.com has Updated 2 in the Manage CSS from  IP 172.20.4.16
-----------------------End--------------------------------------------------------------------------


-----------------------25-08-2016 15:33:01---------------------------------------------------------
sanchit.patne@powerweave.com has BackUpFolderPath Z:\SNEHAL UT INTEGRATED VERSION\Store\\\CSS\backup in the Manage CSS from  IP 172.20.4.16
-----------------------End--------------------------------------------------------------------------


-----------------------25-08-2016 15:33:05---------------------------------------------------------
sanchit.patne@powerweave.com has 3 animate.css in the Manage CSS from  IP 172.20.4.16
-----------------------End--------------------------------------------------------------------------


-----------------------25-08-2016 15:33:37---------------------------------------------------------
sanchit.patne@powerweave.com has 7 Access to the path 'Z:\SNEHAL UT INTEGRATED VERSION\Store\CSS\animate.css' is denied. in the Manage CSS from  IP 172.20.4.16
-----------------------End--------------------------------------------------------------------------


-----------------------25-08-2016 15:34:13---------------------------------------------------------
sanchit.patne@powerweave.com has Updated 1 in the Manage CSS from  IP 172.20.4.16
-----------------------End--------------------------------------------------------------------------


-----------------------25-08-2016 15:34:13---------------------------------------------------------
sanchit.patne@powerweave.com has FilePath Z:\SNEHAL UT INTEGRATED VERSION\Store\\\CSS\animate.css in the Manage CSS from  IP 172.20.4.16
-----------------------End--------------------------------------------------------------------------


-----------------------25-08-2016 15:34:13---------------------------------------------------------
sanchit.patne@powerweave.com has Updated 2 in the Manage CSS from  IP 172.20.4.16
-----------------------End--------------------------------------------------------------------------


-----------------------25-08-2016 15:34:13---------------------------------------------------------
sanchit.patne@powerweave.com has BackUpFolderPath Z:\SNEHAL UT INTEGRATED VERSION\Store\\\CSS\backup in the Manage CSS from  IP 172.20.4.16
-----------------------End--------------------------------------------------------------------------


-----------------------25-08-2016 15:34:15---------------------------------------------------------
sanchit.patne@powerweave.com has 3 animate.css in the Manage CSS from  IP 172.20.4.16
-----------------------End--------------------------------------------------------------------------


-----------------------25-08-2016 15:34:42---------------------------------------------------------
sanchit.patne@powerweave.com has 7 Access to the path 'Z:\SNEHAL UT INTEGRATED VERSION\Store\CSS\animate.css' is denied. in the Manage CSS from  IP 172.20.4.16
-----------------------End--------------------------------------------------------------------------


-----------------------25-08-2016 15:37:47--------------------------------------
sanchit.patne@powerweave.com has Logged-In Control Panel from the IP 172.20.4.16
-----------------------End-------------------------------------------------------------


-----------------------25-08-2016 15:38:40---------------------------------------------------------
sanchit.patne@powerweave.com has Updated 1 in the Manage CSS from  IP 172.20.4.16
-----------------------End--------------------------------------------------------------------------


-----------------------25-08-2016 15:38:41---------------------------------------------------------
sanchit.patne@powerweave.com has FilePath Z:\SNEHAL UT INTEGRATED VERSION\Store\\\CSS\animate.css in the Manage CSS from  IP 172.20.4.16
-----------------------End--------------------------------------------------------------------------


-----------------------25-08-2016 15:38:41---------------------------------------------------------
sanchit.patne@powerweave.com has Updated 2 in the Manage CSS from  IP 172.20.4.16
-----------------------End--------------------------------------------------------------------------


-----------------------25-08-2016 15:38:42---------------------------------------------------------
sanchit.patne@powerweave.com has BackUpFolderPath Z:\SNEHAL UT INTEGRATED VERSION\Store\\\CSS\backup in the Manage CSS from  IP 172.20.4.16
-----------------------End--------------------------------------------------------------------------


-----------------------25-08-2016 15:38:46---------------------------------------------------------
sanchit.patne@powerweave.com has 3 animate.css in the Manage CSS from  IP 172.20.4.16
-----------------------End--------------------------------------------------------------------------


-----------------------25-08-2016 15:38:49---------------------------------------------------------
sanchit.patne@powerweave.com has 5 Z:\SNEHAL UT INTEGRATED VERSION\Store\\\CSS\animate.css\animate.css in the Manage CSS from  IP 172.20.4.16
-----------------------End--------------------------------------------------------------------------


-----------------------25-08-2016 15:38:49---------------------------------------------------------
sanchit.patne@powerweave.com has Updated animate.css in the Manage CSS from  IP 172.20.4.16
-----------------------End--------------------------------------------------------------------------


-----------------------25-08-2016 15:39:50---------------------------------------------------------
sanchit.patne@powerweave.com has Updated 1 in the Manage CSS from  IP 172.20.4.16
-----------------------End--------------------------------------------------------------------------


-----------------------25-08-2016 15:39:50---------------------------------------------------------
sanchit.patne@powerweave.com has FilePath Z:\SNEHAL UT INTEGRATED VERSION\Store\\\CSS\animate.css in the Manage CSS from  IP 172.20.4.16
-----------------------End--------------------------------------------------------------------------


-----------------------25-08-2016 15:39:50---------------------------------------------------------
sanchit.patne@powerweave.com has Updated 2 in the Manage CSS from  IP 172.20.4.16
-----------------------End--------------------------------------------------------------------------


-----------------------25-08-2016 15:39:50---------------------------------------------------------
sanchit.patne@powerweave.com has BackUpFolderPath Z:\SNEHAL UT INTEGRATED VERSION\Store\\\CSS\backup in the Manage CSS from  IP 172.20.4.16
-----------------------End--------------------------------------------------------------------------


-----------------------25-08-2016 15:39:52---------------------------------------------------------
sanchit.patne@powerweave.com has 3 animate.css in the Manage CSS from  IP 172.20.4.16
-----------------------End--------------------------------------------------------------------------


-----------------------25-08-2016 15:39:52---------------------------------------------------------
sanchit.patne@powerweave.com has 5 Z:\SNEHAL UT INTEGRATED VERSION\Store\\\CSS\animate.css\animate.css in the Manage CSS from  IP 172.20.4.16
-----------------------End--------------------------------------------------------------------------


-----------------------25-08-2016 15:39:52---------------------------------------------------------
sanchit.patne@powerweave.com has Updated animate.css in the Manage CSS from  IP 172.20.4.16
-----------------------End--------------------------------------------------------------------------


-----------------------25-08-2016 16:15:18--------------------------------------
sanchit.patne@powerweave.com has Logged-In Control Panel from the IP 172.20.4.16
-----------------------End-------------------------------------------------------------


-----------------------25-08-2016 16:43:15--------------------------------------
sanchit.patne@powerweave.com has Logged-In Control Panel from the IP 172.20.4.16
-----------------------End-------------------------------------------------------------


-----------------------25-08-2016 17:46:22--------------------------------------
sanchit.patne@powerweave.com has Logged-In Control Panel from the IP 172.20.4.16
-----------------------End-------------------------------------------------------------


-----------------------25-08-2016 18:51:35--------------------------------------
sanchit.patne@powerweave.com has Logged-In Control Panel from the IP 172.20.4.16
-----------------------End-------------------------------------------------------------


-----------------------25-08-2016 19:42:43--------------------------------------
sanchit.patne@powerweave.com has Logged-In Control Panel from the IP 172.20.4.16
-----------------------End-------------------------------------------------------------
