

-----------------------1/12/2017 10:02:56 PM--------------------------------------
sanchit.patne@powerweave.com has Logged-In Control Panel from the IP 10.0.0.52
-----------------------End-------------------------------------------------------------
