

-----------------------04/27/2017 7:53:02 PM--------------------------------------
sanchit.patne@powerweave.com has Logged-In Control Panel from the IP 172.20.4.12
-----------------------End-------------------------------------------------------------
