On 7/20/2016 12:53:46 PM,
Message: Registration:Filtering starts
-------------------------------------------------------------------------------
On 7/20/2016 12:53:46 PM,
Message: Registration:before Registeration details
-------------------------------------------------------------------------------
On 7/20/2016 12:53:56 PM,
Message: Registration:after Registeration details
-------------------------------------------------------------------------------
On 7/20/2016 12:53:56 PM,
Message: Registration:Filtering end
-------------------------------------------------------------------------------
On 7/20/2016 12:55:41 PM,
Message: Registration:objStoreBE StoreFeatures after lambda Step 2a
-------------------------------------------------------------------------------
On 7/20/2016 12:55:41 PM,
Message: Registration:objStoreBE StoreFeatures after lambda Step 3a
-------------------------------------------------------------------------------
On 7/20/2016 12:55:41 PM,
Message: Registration:PS_MinimumPasswordLength -6
-------------------------------------------------------------------------------
On 7/20/2016 12:57:37 PM,
Message: Registration:objStoreBE StoreFeatures after lambda Step 2a
-------------------------------------------------------------------------------
On 7/20/2016 12:57:37 PM,
Message: Registration:objStoreBE StoreFeatures after lambda Step 3a
-------------------------------------------------------------------------------
On 7/20/2016 12:57:37 PM,
Message: Registration:PS_MinimumPasswordLength -6
-------------------------------------------------------------------------------
On 7/20/2016 12:57:52 PM,
Message: Registration:btnConfirm_Click Start
-------------------------------------------------------------------------------
On 7/20/2016 12:57:52 PM,
Message: Registration:GetLanguageId - 1
-------------------------------------------------------------------------------
On 7/20/2016 12:57:52 PM,
Message: Registration:GetCurrencyId - 3
-------------------------------------------------------------------------------
On 7/20/2016 12:57:52 PM,
Message: Registration: After Store Details Fetch
-------------------------------------------------------------------------------
On 7/20/2016 12:57:52 PM,
Message: Registration:objStoreBE has value
-------------------------------------------------------------------------------
On 7/20/2016 12:57:52 PM,
Message: Registration:objStoreBE StoreFeatures before lambda Step 1
-------------------------------------------------------------------------------
On 7/20/2016 12:57:52 PM,
Message: Registration:objStoreBE StoreFeatures after lambda Step 2a
-------------------------------------------------------------------------------
On 7/20/2016 12:57:52 PM,
Message: Registration:objStoreBE StoreFeatures after lambda Step 3a
-------------------------------------------------------------------------------
On 7/20/2016 12:57:52 PM,
Message: Registration:PS_MinimumPasswordLength -6
-------------------------------------------------------------------------------
On 7/20/2016 12:57:52 PM,
Message: Registration:objStoreBE StoreFeatures before lambda Step 4
-------------------------------------------------------------------------------
On 7/20/2016 12:57:52 PM,
Message: Registration:Filtering starts
-------------------------------------------------------------------------------
On 7/20/2016 12:57:52 PM,
Message: Registration:before Registeration details
-------------------------------------------------------------------------------
On 7/20/2016 12:57:59 PM,
Message: Registration:after Registeration details
-------------------------------------------------------------------------------
On 7/20/2016 12:57:59 PM,
Message: Registration:Filtering end
-------------------------------------------------------------------------------
On 7/20/2016 12:57:59 PM,
Message: Registration:User Invoice Address start.
-------------------------------------------------------------------------------
On 7/20/2016 12:57:59 PM,
Message: Registration:rptInvoiceAddress before set value in InvoiceAddress fields
-------------------------------------------------------------------------------
On 7/20/2016 12:57:59 PM,
Message: Registration:rptInvoiceAddress after set value in InvoiceAddress fields
-------------------------------------------------------------------------------
On 7/20/2016 12:57:59 PM,
Message: Registration:rptInvoiceAddress before set value in InvoiceAddress fields
-------------------------------------------------------------------------------
On 7/20/2016 12:57:59 PM,
Message: Registration:rptInvoiceAddress after set value in InvoiceAddress fields
-------------------------------------------------------------------------------
On 7/20/2016 12:57:59 PM,
Message: Registration:rptInvoiceAddress before set value in InvoiceAddress fields
-------------------------------------------------------------------------------
On 7/20/2016 12:57:59 PM,
Message: Registration:rptInvoiceAddress after set value in InvoiceAddress fields
-------------------------------------------------------------------------------
On 7/20/2016 12:57:59 PM,
Message: Registration:rptInvoiceAddress before set value in InvoiceAddress fields
-------------------------------------------------------------------------------
On 7/20/2016 12:57:59 PM,
Message: Registration:rptInvoiceAddress after set value in InvoiceAddress fields
-------------------------------------------------------------------------------
On 7/20/2016 12:57:59 PM,
Message: Registration:rptInvoiceAddress before set value in InvoiceAddress fields
-------------------------------------------------------------------------------
On 7/20/2016 12:57:59 PM,
Message: Registration:rptInvoiceAddress after set value in InvoiceAddress fields
-------------------------------------------------------------------------------
On 7/20/2016 12:57:59 PM,
Message: Registration:rptInvoiceAddress before set value in InvoiceAddress fields
-------------------------------------------------------------------------------
On 7/20/2016 12:57:59 PM,
Message: Registration:rptInvoiceAddress after set value in InvoiceAddress fields
-------------------------------------------------------------------------------
On 7/20/2016 12:57:59 PM,
Message: Registration:rptInvoiceAddress before set value in InvoiceAddress fields
-------------------------------------------------------------------------------
On 7/20/2016 12:57:59 PM,
Message: Registration:rptInvoiceAddress after set value in InvoiceAddress fields
-------------------------------------------------------------------------------
On 7/20/2016 12:57:59 PM,
Message: Registration:rptInvoiceAddress column name predefinedcolumn8.
-------------------------------------------------------------------------------
On 7/20/2016 12:57:59 PM,
Message: Registration:rptInvoiceAddress before set value in InvoiceAddress fields
-------------------------------------------------------------------------------
On 7/20/2016 12:57:59 PM,
Message: Registration:rptInvoiceAddress after set value in InvoiceAddress fields
-------------------------------------------------------------------------------
On 7/20/2016 12:57:59 PM,
Message: Registration:rptInvoiceAddress before set value in InvoiceAddress fields
-------------------------------------------------------------------------------
On 7/20/2016 12:57:59 PM,
Message: Registration:rptInvoiceAddress after set value in InvoiceAddress fields
-------------------------------------------------------------------------------
On 7/20/2016 12:57:59 PM,
Message: Registration:User Invoice Address end.
-------------------------------------------------------------------------------
On 7/20/2016 12:57:59 PM,
Message: Registration:User Delivery Address start.
-------------------------------------------------------------------------------
On 7/20/2016 12:57:59 PM,
Message: chkRegSameAsDelv not null.
-------------------------------------------------------------------------------
On 7/20/2016 12:57:59 PM,
Message: Registration: chkRegSameAsDelv Unchecked.
-------------------------------------------------------------------------------
On 7/20/2016 12:57:59 PM,
Message: Registration: chkRegSameAsDelv checked else.
-------------------------------------------------------------------------------
On 7/20/2016 12:57:59 PM,
Message: Registration: rptInvoiceAddress is not null.
-------------------------------------------------------------------------------
On 7/20/2016 12:57:59 PM,
Message: Registration: rptInvoiceAddress item 0
-------------------------------------------------------------------------------
On 7/20/2016 12:57:59 PM,
Message: Registration: rptInvoiceAddress item 1
-------------------------------------------------------------------------------
On 7/20/2016 12:57:59 PM,
Message: Registration: rptInvoiceAddress item 2
-------------------------------------------------------------------------------
On 7/20/2016 12:57:59 PM,
Message: Registration: rptInvoiceAddress item 3
-------------------------------------------------------------------------------
On 7/20/2016 12:57:59 PM,
Message: Registration: rptInvoiceAddress item 4
-------------------------------------------------------------------------------
On 7/20/2016 12:57:59 PM,
Message: Registration: rptInvoiceAddress item 5
-------------------------------------------------------------------------------
On 7/20/2016 12:57:59 PM,
Message: Registration: rptInvoiceAddress item 6
-------------------------------------------------------------------------------
On 7/20/2016 12:57:59 PM,
Message: Registration: rptInvoiceAddress item 7
-------------------------------------------------------------------------------
On 7/20/2016 12:57:59 PM,
Message: Registration: rptInvoiceAddress item 8
-------------------------------------------------------------------------------
On 7/20/2016 12:57:59 PM,
Message: Registration:rptDeliveryAddress before set value in DeliveryAddress fields
-------------------------------------------------------------------------------
On 7/20/2016 12:57:59 PM,
Message: Registration:rptDeliveryAddress after set value in DeliveryAddress fields
-------------------------------------------------------------------------------
On 7/20/2016 12:57:59 PM,
Message: Registration:rptDeliveryAddress before set value in DeliveryAddress fields
-------------------------------------------------------------------------------
On 7/20/2016 12:57:59 PM,
Message: Registration:rptDeliveryAddress after set value in DeliveryAddress fields
-------------------------------------------------------------------------------
On 7/20/2016 12:57:59 PM,
Message: Registration:rptDeliveryAddress before set value in DeliveryAddress fields
-------------------------------------------------------------------------------
On 7/20/2016 12:57:59 PM,
Message: Registration:rptDeliveryAddress after set value in DeliveryAddress fields
-------------------------------------------------------------------------------
On 7/20/2016 12:57:59 PM,
Message: Registration:rptDeliveryAddress before set value in DeliveryAddress fields
-------------------------------------------------------------------------------
On 7/20/2016 12:57:59 PM,
Message: Registration:rptDeliveryAddress after set value in DeliveryAddress fields
-------------------------------------------------------------------------------
On 7/20/2016 12:57:59 PM,
Message: Registration:rptDeliveryAddress before set value in DeliveryAddress fields
-------------------------------------------------------------------------------
On 7/20/2016 12:57:59 PM,
Message: Registration:rptDeliveryAddress after set value in DeliveryAddress fields
-------------------------------------------------------------------------------
On 7/20/2016 12:57:59 PM,
Message: Registration:rptDeliveryAddress before set value in DeliveryAddress fields
-------------------------------------------------------------------------------
On 7/20/2016 12:57:59 PM,
Message: Registration:rptDeliveryAddress after set value in DeliveryAddress fields
-------------------------------------------------------------------------------
On 7/20/2016 12:57:59 PM,
Message: Registration:rptDeliveryAddress before set value in DeliveryAddress fields
-------------------------------------------------------------------------------
On 7/20/2016 12:57:59 PM,
Message: Registration:rptDeliveryAddress after set value in DeliveryAddress fields
-------------------------------------------------------------------------------
On 7/20/2016 12:57:59 PM,
Message: Registration:rptDeliveryAddress column name predefinedcolumn8.
-------------------------------------------------------------------------------
On 7/20/2016 12:57:59 PM,
Message: Registration:rptDeliveryAddress before set value in DeliveryAddress fields
-------------------------------------------------------------------------------
On 7/20/2016 12:57:59 PM,
Message: Registration:rptDeliveryAddress after set value in DeliveryAddress fields
-------------------------------------------------------------------------------
On 7/20/2016 12:57:59 PM,
Message: Registration:rptDeliveryAddress before set value in DeliveryAddress fields
-------------------------------------------------------------------------------
On 7/20/2016 12:57:59 PM,
Message: Registration:rptDeliveryAddress after set value in DeliveryAddress fields
-------------------------------------------------------------------------------
On 7/20/2016 12:57:59 PM,
Message: Registration:User Delivery Address end.
-------------------------------------------------------------------------------
On 7/20/2016 12:57:59 PM,
Message: Registration:rptCustomFields start.
-------------------------------------------------------------------------------
On 7/20/2016 12:57:59 PM,
Message: Registration:rptCustomFields end.
-------------------------------------------------------------------------------
On 7/20/2016 12:57:59 PM,
Message: Registration:UserHierarchy Fields start.
-------------------------------------------------------------------------------
On 7/20/2016 12:57:59 PM,
Message: Registration:Session[ IsUserHierarchyExist ] ELSE start.
-------------------------------------------------------------------------------
On 7/20/2016 12:57:59 PM,
Message: Registration:UserHierarchyId.
-------------------------------------------------------------------------------
On 7/20/2016 12:57:59 PM,
Message: Registration:HierarchyUser.
-------------------------------------------------------------------------------
On 7/20/2016 12:57:59 PM,
Message: Registration:IsApproved.
-------------------------------------------------------------------------------
On 7/20/2016 12:57:59 PM,
Message: Registration:Session[ IsUserHierarchyExist ] ELSE end.
-------------------------------------------------------------------------------
On 7/20/2016 12:57:59 PM,
Message: Registration:before Insert in Database.
-------------------------------------------------------------------------------
On 7/20/2016 12:57:59 PM,
Message: UserBL method -> Fname = Sripal
-------------------------------------------------------------------------------
On 7/20/2016 12:57:59 PM,
Message: UserBL method -> lname = Amballa
-------------------------------------------------------------------------------
On 7/20/2016 12:58:00 PM,
Message: Registration:Successful Insert in database.
-------------------------------------------------------------------------------
On 7/20/2016 12:58:00 PM,
Message: Registration:before BASYS insert.
-------------------------------------------------------------------------------
On 7/20/2016 12:58:07 PM,
Message: Registration:after BASYS insert.
-------------------------------------------------------------------------------
On 7/20/2016 12:58:07 PM,
Message: Registration:before BASYS insert.
-------------------------------------------------------------------------------
On 7/20/2016 12:58:09 PM,
Message: Registration:after BASYS insert.
-------------------------------------------------------------------------------
On 7/20/2016 12:58:09 PM,
Message: Registration:before Email sent.
-------------------------------------------------------------------------------
On 7/20/2016 12:58:12 PM,
Message: Registration:after Email sent.
-------------------------------------------------------------------------------
On 7/20/2016 12:58:12 PM,
Message: Registration:btnConfirm_Click end
-------------------------------------------------------------------------------
On 7/20/2016 1:14:37 PM,
Message: Registration:objStoreBE StoreFeatures after lambda Step 2a
-------------------------------------------------------------------------------
On 7/20/2016 1:14:37 PM,
Message: Registration:objStoreBE StoreFeatures after lambda Step 3a
-------------------------------------------------------------------------------
On 7/20/2016 1:14:37 PM,
Message: Registration:PS_MinimumPasswordLength -6
-------------------------------------------------------------------------------
On 7/20/2016 1:15:01 PM,
Message: Registration:objStoreBE StoreFeatures after lambda Step 2a
-------------------------------------------------------------------------------
On 7/20/2016 1:15:01 PM,
Message: Registration:objStoreBE StoreFeatures after lambda Step 3a
-------------------------------------------------------------------------------
On 7/20/2016 1:15:01 PM,
Message: Registration:PS_MinimumPasswordLength -6
-------------------------------------------------------------------------------
On 7/20/2016 1:16:04 PM,
Message: Registration:objStoreBE StoreFeatures after lambda Step 2a
-------------------------------------------------------------------------------
On 7/20/2016 1:16:04 PM,
Message: Registration:objStoreBE StoreFeatures after lambda Step 3a
-------------------------------------------------------------------------------
On 7/20/2016 1:16:04 PM,
Message: Registration:PS_MinimumPasswordLength -6
-------------------------------------------------------------------------------
On 7/20/2016 1:16:11 PM,
Message: Registration:btnConfirm_Click Start
-------------------------------------------------------------------------------
On 7/20/2016 1:16:11 PM,
Message: Registration:GetLanguageId - 1
-------------------------------------------------------------------------------
On 7/20/2016 1:16:11 PM,
Message: Registration:GetCurrencyId - 2
-------------------------------------------------------------------------------
On 7/20/2016 1:16:11 PM,
Message: Registration: After Store Details Fetch
-------------------------------------------------------------------------------
On 7/20/2016 1:16:11 PM,
Message: Registration:objStoreBE has value
-------------------------------------------------------------------------------
On 7/20/2016 1:16:11 PM,
Message: Registration:objStoreBE StoreFeatures before lambda Step 1
-------------------------------------------------------------------------------
On 7/20/2016 1:16:11 PM,
Message: Registration:objStoreBE StoreFeatures after lambda Step 2a
-------------------------------------------------------------------------------
On 7/20/2016 1:16:11 PM,
Message: Registration:objStoreBE StoreFeatures after lambda Step 3a
-------------------------------------------------------------------------------
On 7/20/2016 1:16:11 PM,
Message: Registration:PS_MinimumPasswordLength -6
-------------------------------------------------------------------------------
On 7/20/2016 1:16:11 PM,
Message: Registration:objStoreBE StoreFeatures before lambda Step 4
-------------------------------------------------------------------------------
On 7/20/2016 1:16:11 PM,
Message: Registration:Filtering starts
-------------------------------------------------------------------------------
On 7/20/2016 1:16:11 PM,
Message: Registration:before Registeration details
-------------------------------------------------------------------------------
On 7/20/2016 1:16:20 PM,
Message: Registration:after Registeration details
-------------------------------------------------------------------------------
On 7/20/2016 1:16:20 PM,
Message: Registration:Filtering end
-------------------------------------------------------------------------------
On 7/20/2016 1:16:20 PM,
Message: Registration:User Invoice Address start.
-------------------------------------------------------------------------------
On 7/20/2016 1:16:20 PM,
Message: Registration:rptInvoiceAddress before set value in InvoiceAddress fields
-------------------------------------------------------------------------------
On 7/20/2016 1:16:20 PM,
Message: Registration:rptInvoiceAddress after set value in InvoiceAddress fields
-------------------------------------------------------------------------------
On 7/20/2016 1:16:20 PM,
Message: Registration:rptInvoiceAddress before set value in InvoiceAddress fields
-------------------------------------------------------------------------------
On 7/20/2016 1:16:20 PM,
Message: Registration:rptInvoiceAddress after set value in InvoiceAddress fields
-------------------------------------------------------------------------------
On 7/20/2016 1:16:20 PM,
Message: Registration:rptInvoiceAddress before set value in InvoiceAddress fields
-------------------------------------------------------------------------------
On 7/20/2016 1:16:20 PM,
Message: Registration:rptInvoiceAddress after set value in InvoiceAddress fields
-------------------------------------------------------------------------------
On 7/20/2016 1:16:20 PM,
Message: Registration:rptInvoiceAddress before set value in InvoiceAddress fields
-------------------------------------------------------------------------------
On 7/20/2016 1:16:20 PM,
Message: Registration:rptInvoiceAddress after set value in InvoiceAddress fields
-------------------------------------------------------------------------------
On 7/20/2016 1:16:20 PM,
Message: Registration:rptInvoiceAddress before set value in InvoiceAddress fields
-------------------------------------------------------------------------------
On 7/20/2016 1:16:20 PM,
Message: Registration:rptInvoiceAddress after set value in InvoiceAddress fields
-------------------------------------------------------------------------------
On 7/20/2016 1:16:20 PM,
Message: Registration:rptInvoiceAddress before set value in InvoiceAddress fields
-------------------------------------------------------------------------------
On 7/20/2016 1:16:20 PM,
Message: Registration:rptInvoiceAddress after set value in InvoiceAddress fields
-------------------------------------------------------------------------------
On 7/20/2016 1:16:20 PM,
Message: Registration:rptInvoiceAddress before set value in InvoiceAddress fields
-------------------------------------------------------------------------------
On 7/20/2016 1:16:20 PM,
Message: Registration:rptInvoiceAddress after set value in InvoiceAddress fields
-------------------------------------------------------------------------------
On 7/20/2016 1:16:20 PM,
Message: Registration:rptInvoiceAddress column name predefinedcolumn8.
-------------------------------------------------------------------------------
On 7/20/2016 1:16:20 PM,
Message: Registration:rptInvoiceAddress before set value in InvoiceAddress fields
-------------------------------------------------------------------------------
On 7/20/2016 1:16:20 PM,
Message: Registration:rptInvoiceAddress after set value in InvoiceAddress fields
-------------------------------------------------------------------------------
On 7/20/2016 1:16:20 PM,
Message: Registration:rptInvoiceAddress before set value in InvoiceAddress fields
-------------------------------------------------------------------------------
On 7/20/2016 1:16:20 PM,
Message: Registration:rptInvoiceAddress after set value in InvoiceAddress fields
-------------------------------------------------------------------------------
On 7/20/2016 1:16:20 PM,
Message: Registration:User Invoice Address end.
-------------------------------------------------------------------------------
On 7/20/2016 1:16:20 PM,
Message: Registration:User Delivery Address start.
-------------------------------------------------------------------------------
On 7/20/2016 1:16:20 PM,
Message: chkRegSameAsDelv not null.
-------------------------------------------------------------------------------
On 7/20/2016 1:16:20 PM,
Message: Registration: chkRegSameAsDelv Unchecked.
-------------------------------------------------------------------------------
On 7/20/2016 1:16:20 PM,
Message: Registration: chkRegSameAsDelv checked else.
-------------------------------------------------------------------------------
On 7/20/2016 1:16:20 PM,
Message: Registration: rptInvoiceAddress is not null.
-------------------------------------------------------------------------------
On 7/20/2016 1:16:20 PM,
Message: Registration: rptInvoiceAddress item 0
-------------------------------------------------------------------------------
On 7/20/2016 1:16:20 PM,
Message: Registration: rptInvoiceAddress item 1
-------------------------------------------------------------------------------
On 7/20/2016 1:16:20 PM,
Message: Registration: rptInvoiceAddress item 2
-------------------------------------------------------------------------------
On 7/20/2016 1:16:20 PM,
Message: Registration: rptInvoiceAddress item 3
-------------------------------------------------------------------------------
On 7/20/2016 1:16:20 PM,
Message: Registration: rptInvoiceAddress item 4
-------------------------------------------------------------------------------
On 7/20/2016 1:16:20 PM,
Message: Registration: rptInvoiceAddress item 5
-------------------------------------------------------------------------------
On 7/20/2016 1:16:20 PM,
Message: Registration: rptInvoiceAddress item 6
-------------------------------------------------------------------------------
On 7/20/2016 1:16:20 PM,
Message: Registration: rptInvoiceAddress item 7
-------------------------------------------------------------------------------
On 7/20/2016 1:16:20 PM,
Message: Registration: rptInvoiceAddress item 8
-------------------------------------------------------------------------------
On 7/20/2016 1:16:20 PM,
Message: Registration:rptDeliveryAddress before set value in DeliveryAddress fields
-------------------------------------------------------------------------------
On 7/20/2016 1:16:20 PM,
Message: Registration:rptDeliveryAddress after set value in DeliveryAddress fields
-------------------------------------------------------------------------------
On 7/20/2016 1:16:20 PM,
Message: Registration:rptDeliveryAddress before set value in DeliveryAddress fields
-------------------------------------------------------------------------------
On 7/20/2016 1:16:20 PM,
Message: Registration:rptDeliveryAddress after set value in DeliveryAddress fields
-------------------------------------------------------------------------------
On 7/20/2016 1:16:20 PM,
Message: Registration:rptDeliveryAddress before set value in DeliveryAddress fields
-------------------------------------------------------------------------------
On 7/20/2016 1:16:20 PM,
Message: Registration:rptDeliveryAddress after set value in DeliveryAddress fields
-------------------------------------------------------------------------------
On 7/20/2016 1:16:20 PM,
Message: Registration:rptDeliveryAddress before set value in DeliveryAddress fields
-------------------------------------------------------------------------------
On 7/20/2016 1:16:20 PM,
Message: Registration:rptDeliveryAddress after set value in DeliveryAddress fields
-------------------------------------------------------------------------------
On 7/20/2016 1:16:20 PM,
Message: Registration:rptDeliveryAddress before set value in DeliveryAddress fields
-------------------------------------------------------------------------------
On 7/20/2016 1:16:20 PM,
Message: Registration:rptDeliveryAddress after set value in DeliveryAddress fields
-------------------------------------------------------------------------------
On 7/20/2016 1:16:20 PM,
Message: Registration:rptDeliveryAddress before set value in DeliveryAddress fields
-------------------------------------------------------------------------------
On 7/20/2016 1:16:20 PM,
Message: Registration:rptDeliveryAddress after set value in DeliveryAddress fields
-------------------------------------------------------------------------------
On 7/20/2016 1:16:20 PM,
Message: Registration:rptDeliveryAddress before set value in DeliveryAddress fields
-------------------------------------------------------------------------------
On 7/20/2016 1:16:20 PM,
Message: Registration:rptDeliveryAddress after set value in DeliveryAddress fields
-------------------------------------------------------------------------------
On 7/20/2016 1:16:20 PM,
Message: Registration:rptDeliveryAddress column name predefinedcolumn8.
-------------------------------------------------------------------------------
On 7/20/2016 1:16:20 PM,
Message: Registration:rptDeliveryAddress before set value in DeliveryAddress fields
-------------------------------------------------------------------------------
On 7/20/2016 1:16:20 PM,
Message: Registration:rptDeliveryAddress after set value in DeliveryAddress fields
-------------------------------------------------------------------------------
On 7/20/2016 1:16:20 PM,
Message: Registration:rptDeliveryAddress before set value in DeliveryAddress fields
-------------------------------------------------------------------------------
On 7/20/2016 1:16:20 PM,
Message: Registration:rptDeliveryAddress after set value in DeliveryAddress fields
-------------------------------------------------------------------------------
On 7/20/2016 1:16:20 PM,
Message: Registration:User Delivery Address end.
-------------------------------------------------------------------------------
On 7/20/2016 1:16:20 PM,
Message: Registration:rptCustomFields start.
-------------------------------------------------------------------------------
On 7/20/2016 1:16:20 PM,
Message: Registration:rptCustomFields end.
-------------------------------------------------------------------------------
On 7/20/2016 1:16:20 PM,
Message: Registration:UserHierarchy Fields start.
-------------------------------------------------------------------------------
On 7/20/2016 1:16:20 PM,
Message: Registration:Session[ IsUserHierarchyExist ] ELSE start.
-------------------------------------------------------------------------------
On 7/20/2016 1:16:20 PM,
Message: Registration:UserHierarchyId.
-------------------------------------------------------------------------------
On 7/20/2016 1:16:20 PM,
Message: Registration:HierarchyUser.
-------------------------------------------------------------------------------
On 7/20/2016 1:16:20 PM,
Message: Registration:IsApproved.
-------------------------------------------------------------------------------
On 7/20/2016 1:16:20 PM,
Message: Registration:Session[ IsUserHierarchyExist ] ELSE end.
-------------------------------------------------------------------------------
On 7/20/2016 1:16:20 PM,
Message: Registration:before Insert in Database.
-------------------------------------------------------------------------------
On 7/20/2016 1:16:20 PM,
Message: UserBL method -> Fname = Sripal
-------------------------------------------------------------------------------
On 7/20/2016 1:16:20 PM,
Message: UserBL method -> lname = Amballa
-------------------------------------------------------------------------------
On 7/20/2016 1:16:20 PM,
Message: Registration:Successful Insert in database.
-------------------------------------------------------------------------------
On 7/20/2016 1:16:20 PM,
Message: Registration:before BASYS insert.
-------------------------------------------------------------------------------
On 7/20/2016 1:16:24 PM,
Message: Registration:after BASYS insert.
-------------------------------------------------------------------------------
On 7/20/2016 1:16:24 PM,
Message: Registration:before Email sent.
-------------------------------------------------------------------------------
On 7/20/2016 1:16:28 PM,
Message: Registration:after Email sent.
-------------------------------------------------------------------------------
On 7/20/2016 1:16:28 PM,
Message: Registration:btnConfirm_Click end
-------------------------------------------------------------------------------
