Id,Domain,EmailId
1,gmail.com,vinit@gmail.com
2,yahoo.com,vikram@yahoo.com
3,hotmail.com,sanchit@gmail.com
4,powerweave.com,ashish@hotmail.com 
5,,test1@test.com
6,,test2@abc.com
7,,test4@xyz.com
8,,lklk@kjkjkj.com
9,,xyz@abc.com
10,,lalal@kakka.com
11,,popp@ytyty.com
