On 6/28/2017 12:56:15 PM,
Message: url
-------------------------------------------------------------------------------
On 6/28/2017 1:36:57 PM,
Message: url
-------------------------------------------------------------------------------
On 6/28/2017 3:07:36 PM,
Message: url
-------------------------------------------------------------------------------
On 6/28/2017 3:08:24 PM,
Message: urlhttp://localhost:7482/home/home.aspx
-------------------------------------------------------------------------------
On 6/28/2017 3:09:03 PM,
Message: urlhttp://localhost:7482/home/home.aspx
-------------------------------------------------------------------------------
On 6/28/2017 3:09:35 PM,
Message: urlhttp://localhost:7482/home/home.aspx
-------------------------------------------------------------------------------
On 6/28/2017 3:11:32 PM,
Message: url
-------------------------------------------------------------------------------
On 6/28/2017 3:26:38 PM,
Message: urlhttp://localhost:7482/login/login.aspx
-------------------------------------------------------------------------------
On 6/28/2017 3:28:04 PM,
Message: url
-------------------------------------------------------------------------------
On 6/28/2017 3:28:29 PM,
Message: urlhttp://localhost:7482/login/login.aspx
-------------------------------------------------------------------------------
On 6/28/2017 3:28:50 PM,
Message: urlhttp://localhost:7482/login/login.aspx
-------------------------------------------------------------------------------
On 6/28/2017 3:35:09 PM,
Message: urlhttp://localhost:7482/index
-------------------------------------------------------------------------------
