On 04/05/2017 12:16:58 PM,
Message: ---INSIDE PAGE LOAD OF INDEED_SSOLogs LOGIN--- 
-------------------------------------------------------------------------------
On 04/05/2017 12:16:58 PM,
Message: ---INSIDE SETUPREQUEST INDEED_SSOLogs LOGIN PAGE--- 
-------------------------------------------------------------------------------
On 04/05/2017 12:16:58 PM,
Message: AFTER BINDING RESOURCES
-------------------------------------------------------------------------------
On 04/05/2017 12:16:58 PM,
Message: ---INSIDE SETUPREQUEST  POWERWEAVE USER--- 
-------------------------------------------------------------------------------
On 04/05/2017 12:16:58 PM,
Message: Employee_ID : IND0000002
-------------------------------------------------------------------------------
On 04/05/2017 12:16:59 PM,
Message: InsertUpdateEmployeeSAML Successfully
-------------------------------------------------------------------------------
On 04/05/2017 12:16:59 PM,
Message: Ship_To_Location : DE
-------------------------------------------------------------------------------
On 04/05/2017 12:16:59 PM,
Message: IndeedInvoiceAccointID : 1331165
-------------------------------------------------------------------------------
On 04/05/2017 12:16:59 PM,
Message: Inside TRY
-------------------------------------------------------------------------------
On 04/05/2017 12:16:59 PM,
Message: IndeedSSO_User : True
-------------------------------------------------------------------------------
On 04/05/2017 12:17:00 PM,
Message: BEFORE CALLING UserBL.ChkEmployeeExists
-------------------------------------------------------------------------------
On 04/05/2017 12:17:00 PM,
Message: AFTER CALLING UserBL.ChkEmployeeExists
-------------------------------------------------------------------------------
On 04/05/2017 12:17:00 PM,
Message: INSIDE IF UserExistInBASYS == 0
-------------------------------------------------------------------------------
On 04/05/2017 12:17:00 PM,
Message: BEFORE CALLING UserBL.GetIndeedSSOUserDetails
-------------------------------------------------------------------------------
On 04/05/2017 12:17:00 PM,
Message: AFTER CALLING UserBL.GetIndeedSSOUserDetails
-------------------------------------------------------------------------------
On 04/05/2017 12:17:00 PM,
Message: BEFORE CALLING UserBL.ChkUserExists
-------------------------------------------------------------------------------
On 04/05/2017 12:17:00 PM,
Message: AFTER CALLING UserBL.ChkUserExists
-------------------------------------------------------------------------------
On 04/05/2017 12:17:00 PM,
Message: AFTER CALLING GetAllCountryCurrencyMapping
-------------------------------------------------------------------------------
On 04/05/2017 12:17:00 PM,
Message: AFTER CREATING UserCatalogueID Session
-------------------------------------------------------------------------------
On 04/05/2017 12:17:00 PM,
Message: INSIDE IF UserExistInStore == 1
-------------------------------------------------------------------------------
On 04/05/2017 12:17:00 PM,
Message: BEFORE UserBL.UpdateReferrelUserTypeId
-------------------------------------------------------------------------------
On 04/05/2017 12:17:01 PM,
Message: AFTER UserBL.UpdateReferrelUserTypeId
-------------------------------------------------------------------------------
On 04/05/2017 12:17:01 PM,
Message: BEFORE UserBL.GetSingleObjectDetails
-------------------------------------------------------------------------------
On 04/05/2017 12:17:01 PM,
Message: AFTER UserBL.GetSingleObjectDetails
-------------------------------------------------------------------------------
On 04/05/2017 12:17:01 PM,
Message: BEFORE calling Login_UserLogin.UpdateBasketSessionProducts()
-------------------------------------------------------------------------------
On 04/05/2017 12:17:01 PM,
Message: AFTER calling Login_UserLogin.UpdateBasketSessionProducts()
-------------------------------------------------------------------------------
On 04/05/2017 12:17:01 PM,
Message: User Email = rony@indeed.com
-------------------------------------------------------------------------------
On 04/05/2017 12:17:01 PM,
Message: User Session NOT NULL rony@indeed.com
-------------------------------------------------------------------------------
On 04/05/2017 12:17:01 PM,
Message: IndeedSSO_User NOT NULL rony@indeed.com
-------------------------------------------------------------------------------
On 04/05/2017 12:17:01 PM,
Message: User Email in Index page load = rony@indeed.com
-------------------------------------------------------------------------------
On 04/05/2017 12:17:04 PM,
Message: IndeedSSO_User NOT NULL Master Page
-------------------------------------------------------------------------------
On 04/05/2017 12:17:04 PM,
Message: User Session NOT NULL rony@indeed.com
-------------------------------------------------------------------------------
On 04/05/2017 12:17:28 PM,
Message: IndeedSSO_User NOT NULL Master Page
-------------------------------------------------------------------------------
On 04/05/2017 12:17:28 PM,
Message: User Session NOT NULL rony@indeed.com
-------------------------------------------------------------------------------
On 04/05/2017 12:18:13 PM,
Message: IndeedSSO_User NOT NULL Master Page
-------------------------------------------------------------------------------
On 04/05/2017 12:18:13 PM,
Message: User Session NOT NULL rony@indeed.com
-------------------------------------------------------------------------------
On 04/05/2017 12:18:31 PM,
Message: IndeedSSO_User NOT NULL Master Page
-------------------------------------------------------------------------------
On 04/05/2017 12:18:31 PM,
Message: User Session NOT NULL rony@indeed.com
-------------------------------------------------------------------------------
On 04/05/2017 12:18:37 PM,
Message: IndeedSSO_User NOT NULL Master Page
-------------------------------------------------------------------------------
On 04/05/2017 12:18:37 PM,
Message: User Session NOT NULL rony@indeed.com
-------------------------------------------------------------------------------
On 04/05/2017 12:33:50 PM,
Message: IndeedSSO_User NOT NULL Master Page
-------------------------------------------------------------------------------
On 04/05/2017 12:33:50 PM,
Message: User Session NOT NULL rony@indeed.com
-------------------------------------------------------------------------------
On 04/05/2017 12:56:40 PM,
Message: ---INSIDE PAGE LOAD OF INDEED_SSOLogs LOGIN--- 
-------------------------------------------------------------------------------
On 04/05/2017 12:56:40 PM,
Message: ---INSIDE SETUPREQUEST INDEED_SSOLogs LOGIN PAGE--- 
-------------------------------------------------------------------------------
On 04/05/2017 12:56:40 PM,
Message: AFTER BINDING RESOURCES
-------------------------------------------------------------------------------
On 04/05/2017 12:56:40 PM,
Message: ---INSIDE SETUPREQUEST  POWERWEAVE USER--- 
-------------------------------------------------------------------------------
On 04/05/2017 12:56:40 PM,
Message: Employee_ID : IND0000002
-------------------------------------------------------------------------------
On 04/05/2017 12:56:40 PM,
Message: InsertUpdateEmployeeSAML Successfully
-------------------------------------------------------------------------------
On 04/05/2017 12:56:40 PM,
Message: Ship_To_Location : DE
-------------------------------------------------------------------------------
On 04/05/2017 12:56:40 PM,
Message: IndeedInvoiceAccointID : 1331165
-------------------------------------------------------------------------------
On 04/05/2017 12:56:40 PM,
Message: Inside TRY
-------------------------------------------------------------------------------
On 04/05/2017 12:56:40 PM,
Message: IndeedSSO_User : True
-------------------------------------------------------------------------------
On 04/05/2017 12:56:41 PM,
Message: BEFORE CALLING UserBL.ChkEmployeeExists
-------------------------------------------------------------------------------
On 04/05/2017 12:56:42 PM,
Message: AFTER CALLING UserBL.ChkEmployeeExists
-------------------------------------------------------------------------------
On 04/05/2017 12:56:42 PM,
Message: INSIDE IF UserExistInBASYS == 0
-------------------------------------------------------------------------------
On 04/05/2017 12:56:42 PM,
Message: BEFORE CALLING UserBL.GetIndeedSSOUserDetails
-------------------------------------------------------------------------------
On 04/05/2017 12:56:42 PM,
Message: AFTER CALLING UserBL.GetIndeedSSOUserDetails
-------------------------------------------------------------------------------
On 04/05/2017 12:56:42 PM,
Message: BEFORE CALLING UserBL.ChkUserExists
-------------------------------------------------------------------------------
On 04/05/2017 12:56:42 PM,
Message: AFTER CALLING UserBL.ChkUserExists
-------------------------------------------------------------------------------
On 04/05/2017 12:56:42 PM,
Message: AFTER CALLING GetAllCountryCurrencyMapping
-------------------------------------------------------------------------------
On 04/05/2017 12:56:42 PM,
Message: AFTER CREATING UserCatalogueID Session
-------------------------------------------------------------------------------
On 04/05/2017 12:56:42 PM,
Message: INSIDE IF UserExistInStore == 1
-------------------------------------------------------------------------------
On 04/05/2017 12:56:42 PM,
Message: BEFORE UserBL.UpdateReferrelUserTypeId
-------------------------------------------------------------------------------
On 04/05/2017 12:56:42 PM,
Message: AFTER UserBL.UpdateReferrelUserTypeId
-------------------------------------------------------------------------------
On 04/05/2017 12:56:42 PM,
Message: BEFORE UserBL.GetSingleObjectDetails
-------------------------------------------------------------------------------
On 04/05/2017 12:56:42 PM,
Message: AFTER UserBL.GetSingleObjectDetails
-------------------------------------------------------------------------------
On 04/05/2017 12:56:43 PM,
Message: BEFORE calling Login_UserLogin.UpdateBasketSessionProducts()
-------------------------------------------------------------------------------
On 04/05/2017 12:56:43 PM,
Message: AFTER calling Login_UserLogin.UpdateBasketSessionProducts()
-------------------------------------------------------------------------------
On 04/05/2017 12:56:43 PM,
Message: User Email = rony@indeed.com
-------------------------------------------------------------------------------
On 04/05/2017 12:56:43 PM,
Message: User Session NOT NULL rony@indeed.com
-------------------------------------------------------------------------------
On 04/05/2017 12:56:43 PM,
Message: IndeedSSO_User NOT NULL rony@indeed.com
-------------------------------------------------------------------------------
On 04/05/2017 12:56:43 PM,
Message: User Email in Index page load = rony@indeed.com
-------------------------------------------------------------------------------
On 04/05/2017 12:56:47 PM,
Message: IndeedSSO_User NOT NULL Master Page
-------------------------------------------------------------------------------
On 04/05/2017 12:56:47 PM,
Message: User Session NOT NULL rony@indeed.com
-------------------------------------------------------------------------------
On 04/05/2017 12:57:04 PM,
Message: IndeedSSO_User NOT NULL Master Page
-------------------------------------------------------------------------------
On 04/05/2017 12:57:04 PM,
Message: User Session NOT NULL rony@indeed.com
-------------------------------------------------------------------------------
On 04/05/2017 12:57:17 PM,
Message: IndeedSSO_User NOT NULL Master Page
-------------------------------------------------------------------------------
On 04/05/2017 12:57:17 PM,
Message: User Session NOT NULL rony@indeed.com
-------------------------------------------------------------------------------
On 04/05/2017 12:57:31 PM,
Message: IndeedSSO_User NOT NULL Master Page
-------------------------------------------------------------------------------
On 04/05/2017 12:57:31 PM,
Message: User Session NOT NULL rony@indeed.com
-------------------------------------------------------------------------------
On 04/05/2017 12:57:37 PM,
Message: IndeedSSO_User NOT NULL Master Page
-------------------------------------------------------------------------------
On 04/05/2017 12:57:37 PM,
Message: User Session NOT NULL rony@indeed.com
-------------------------------------------------------------------------------
On 04/05/2017 12:58:58 PM,
Message: IndeedSSO_User NOT NULL Master Page
-------------------------------------------------------------------------------
On 04/05/2017 12:58:58 PM,
Message: User Session NOT NULL rony@indeed.com
-------------------------------------------------------------------------------
On 04/05/2017 1:01:08 PM,
Message: ---INSIDE PAGE LOAD OF INDEED_SSOLogs LOGIN--- 
-------------------------------------------------------------------------------
On 04/05/2017 1:01:08 PM,
Message: ---INSIDE SETUPREQUEST INDEED_SSOLogs LOGIN PAGE--- 
-------------------------------------------------------------------------------
On 04/05/2017 1:01:08 PM,
Message: AFTER BINDING RESOURCES
-------------------------------------------------------------------------------
On 04/05/2017 1:01:08 PM,
Message: ---INSIDE SETUPREQUEST  POWERWEAVE USER--- 
-------------------------------------------------------------------------------
On 04/05/2017 1:01:08 PM,
Message: Employee_ID : IND0000002
-------------------------------------------------------------------------------
On 04/05/2017 1:01:08 PM,
Message: InsertUpdateEmployeeSAML Successfully
-------------------------------------------------------------------------------
On 04/05/2017 1:01:08 PM,
Message: Ship_To_Location : DE
-------------------------------------------------------------------------------
On 04/05/2017 1:01:08 PM,
Message: IndeedInvoiceAccointID : 1331165
-------------------------------------------------------------------------------
On 04/05/2017 1:01:08 PM,
Message: Inside TRY
-------------------------------------------------------------------------------
On 04/05/2017 1:01:08 PM,
Message: IndeedSSO_User : True
-------------------------------------------------------------------------------
On 04/05/2017 1:01:09 PM,
Message: BEFORE CALLING UserBL.ChkEmployeeExists
-------------------------------------------------------------------------------
On 04/05/2017 1:01:09 PM,
Message: AFTER CALLING UserBL.ChkEmployeeExists
-------------------------------------------------------------------------------
On 04/05/2017 1:01:09 PM,
Message: INSIDE IF UserExistInBASYS == 0
-------------------------------------------------------------------------------
On 04/05/2017 1:01:09 PM,
Message: BEFORE CALLING UserBL.GetIndeedSSOUserDetails
-------------------------------------------------------------------------------
On 04/05/2017 1:01:10 PM,
Message: AFTER CALLING UserBL.GetIndeedSSOUserDetails
-------------------------------------------------------------------------------
On 04/05/2017 1:01:10 PM,
Message: BEFORE CALLING UserBL.ChkUserExists
-------------------------------------------------------------------------------
On 04/05/2017 1:01:10 PM,
Message: AFTER CALLING UserBL.ChkUserExists
-------------------------------------------------------------------------------
On 04/05/2017 1:01:10 PM,
Message: AFTER CALLING GetAllCountryCurrencyMapping
-------------------------------------------------------------------------------
On 04/05/2017 1:01:10 PM,
Message: AFTER CREATING UserCatalogueID Session
-------------------------------------------------------------------------------
On 04/05/2017 1:01:10 PM,
Message: INSIDE IF UserExistInStore == 1
-------------------------------------------------------------------------------
On 04/05/2017 1:01:10 PM,
Message: BEFORE UserBL.UpdateReferrelUserTypeId
-------------------------------------------------------------------------------
On 04/05/2017 1:01:10 PM,
Message: AFTER UserBL.UpdateReferrelUserTypeId
-------------------------------------------------------------------------------
On 04/05/2017 1:01:10 PM,
Message: BEFORE UserBL.GetSingleObjectDetails
-------------------------------------------------------------------------------
On 04/05/2017 1:01:10 PM,
Message: AFTER UserBL.GetSingleObjectDetails
-------------------------------------------------------------------------------
On 04/05/2017 1:01:10 PM,
Message: BEFORE calling Login_UserLogin.UpdateBasketSessionProducts()
-------------------------------------------------------------------------------
On 04/05/2017 1:01:11 PM,
Message: AFTER calling Login_UserLogin.UpdateBasketSessionProducts()
-------------------------------------------------------------------------------
On 04/05/2017 1:01:11 PM,
Message: User Email = rony@indeed.com
-------------------------------------------------------------------------------
On 04/05/2017 1:01:11 PM,
Message: User Session NOT NULL rony@indeed.com
-------------------------------------------------------------------------------
On 04/05/2017 1:01:11 PM,
Message: IndeedSSO_User NOT NULL rony@indeed.com
-------------------------------------------------------------------------------
On 04/05/2017 1:01:11 PM,
Message: User Email in Index page load = rony@indeed.com
-------------------------------------------------------------------------------
On 04/05/2017 1:01:14 PM,
Message: IndeedSSO_User NOT NULL Master Page
-------------------------------------------------------------------------------
On 04/05/2017 1:01:14 PM,
Message: User Session NOT NULL rony@indeed.com
-------------------------------------------------------------------------------
On 04/05/2017 1:01:28 PM,
Message: IndeedSSO_User NOT NULL Master Page
-------------------------------------------------------------------------------
On 04/05/2017 1:01:28 PM,
Message: User Session NOT NULL rony@indeed.com
-------------------------------------------------------------------------------
On 04/05/2017 1:01:39 PM,
Message: IndeedSSO_User NOT NULL Master Page
-------------------------------------------------------------------------------
On 04/05/2017 1:01:39 PM,
Message: User Session NOT NULL rony@indeed.com
-------------------------------------------------------------------------------
On 04/05/2017 1:01:53 PM,
Message: IndeedSSO_User NOT NULL Master Page
-------------------------------------------------------------------------------
On 04/05/2017 1:01:53 PM,
Message: User Session NOT NULL rony@indeed.com
-------------------------------------------------------------------------------
On 04/05/2017 1:01:59 PM,
Message: IndeedSSO_User NOT NULL Master Page
-------------------------------------------------------------------------------
On 04/05/2017 1:01:59 PM,
Message: User Session NOT NULL rony@indeed.com
-------------------------------------------------------------------------------
On 04/05/2017 1:05:39 PM,
Message: IndeedSSO_User NOT NULL Master Page
-------------------------------------------------------------------------------
On 04/05/2017 1:05:39 PM,
Message: User Session NOT NULL rony@indeed.com
-------------------------------------------------------------------------------
On 04/05/2017 1:06:21 PM,
Message: IndeedSSO_User NOT NULL Master Page
-------------------------------------------------------------------------------
On 04/05/2017 1:06:21 PM,
Message: User Session NOT NULL rony@indeed.com
-------------------------------------------------------------------------------
On 04/05/2017 1:06:46 PM,
Message: IndeedSSO_User NOT NULL Master Page
-------------------------------------------------------------------------------
On 04/05/2017 1:06:46 PM,
Message: User Session NOT NULL rony@indeed.com
-------------------------------------------------------------------------------
On 04/05/2017 7:04:08 PM,
Message: ---INSIDE PAGE LOAD OF INDEED_SSOLogs LOGIN--- 
-------------------------------------------------------------------------------
On 04/05/2017 7:04:08 PM,
Message: ---INSIDE SETUPREQUEST INDEED_SSOLogs LOGIN PAGE--- 
-------------------------------------------------------------------------------
On 04/05/2017 7:04:08 PM,
Message: AFTER BINDING RESOURCES
-------------------------------------------------------------------------------
On 04/05/2017 7:04:08 PM,
Message: ---INSIDE SETUPREQUEST  POWERWEAVE USER--- 
-------------------------------------------------------------------------------
On 04/05/2017 7:04:08 PM,
Message: Employee_ID : IND0000002
-------------------------------------------------------------------------------
On 04/05/2017 7:04:08 PM,
Message: InsertUpdateEmployeeSAML Successfully
-------------------------------------------------------------------------------
On 04/05/2017 7:04:08 PM,
Message: Ship_To_Location : DE
-------------------------------------------------------------------------------
On 04/05/2017 7:04:08 PM,
Message: IndeedInvoiceAccointID : 1331165
-------------------------------------------------------------------------------
On 04/05/2017 7:04:08 PM,
Message: Inside TRY
-------------------------------------------------------------------------------
On 04/05/2017 7:04:08 PM,
Message: IndeedSSO_User : True
-------------------------------------------------------------------------------
On 04/05/2017 7:04:09 PM,
Message: BEFORE CALLING UserBL.ChkEmployeeExists
-------------------------------------------------------------------------------
On 04/05/2017 7:04:09 PM,
Message: AFTER CALLING UserBL.ChkEmployeeExists
-------------------------------------------------------------------------------
On 04/05/2017 7:04:09 PM,
Message: INSIDE IF UserExistInBASYS == 0
-------------------------------------------------------------------------------
On 04/05/2017 7:04:09 PM,
Message: BEFORE CALLING UserBL.GetIndeedSSOUserDetails
-------------------------------------------------------------------------------
On 04/05/2017 7:04:09 PM,
Message: AFTER CALLING UserBL.GetIndeedSSOUserDetails
-------------------------------------------------------------------------------
On 04/05/2017 7:04:09 PM,
Message: BEFORE CALLING UserBL.ChkUserExists
-------------------------------------------------------------------------------
On 04/05/2017 7:04:09 PM,
Message: AFTER CALLING UserBL.ChkUserExists
-------------------------------------------------------------------------------
On 04/05/2017 7:04:09 PM,
Message: AFTER CALLING GetAllCountryCurrencyMapping
-------------------------------------------------------------------------------
On 04/05/2017 7:04:09 PM,
Message: AFTER CREATING UserCatalogueID Session
-------------------------------------------------------------------------------
On 04/05/2017 7:04:09 PM,
Message: INSIDE IF UserExistInStore == 1
-------------------------------------------------------------------------------
On 04/05/2017 7:04:09 PM,
Message: BEFORE UserBL.UpdateReferrelUserTypeId
-------------------------------------------------------------------------------
On 04/05/2017 7:04:10 PM,
Message: AFTER UserBL.UpdateReferrelUserTypeId
-------------------------------------------------------------------------------
On 04/05/2017 7:04:10 PM,
Message: BEFORE UserBL.GetSingleObjectDetails
-------------------------------------------------------------------------------
On 04/05/2017 7:04:10 PM,
Message: AFTER UserBL.GetSingleObjectDetails
-------------------------------------------------------------------------------
On 04/05/2017 7:04:10 PM,
Message: BEFORE calling Login_UserLogin.UpdateBasketSessionProducts()
-------------------------------------------------------------------------------
On 04/05/2017 7:04:10 PM,
Message: AFTER calling Login_UserLogin.UpdateBasketSessionProducts()
-------------------------------------------------------------------------------
On 04/05/2017 7:04:10 PM,
Message: User Email = rony@indeed.com
-------------------------------------------------------------------------------
On 04/05/2017 7:04:11 PM,
Message: User Session NOT NULL rony@indeed.com
-------------------------------------------------------------------------------
On 04/05/2017 7:04:11 PM,
Message: IndeedSSO_User NOT NULL rony@indeed.com
-------------------------------------------------------------------------------
On 04/05/2017 7:04:11 PM,
Message: User Email in Index page load = rony@indeed.com
-------------------------------------------------------------------------------
On 04/05/2017 7:04:14 PM,
Message: IndeedSSO_User NOT NULL Master Page
-------------------------------------------------------------------------------
On 04/05/2017 7:04:14 PM,
Message: User Session NOT NULL rony@indeed.com
-------------------------------------------------------------------------------
On 04/05/2017 7:04:52 PM,
Message: IndeedSSO_User NOT NULL Master Page
-------------------------------------------------------------------------------
On 04/05/2017 7:04:52 PM,
Message: User Session NOT NULL rony@indeed.com
-------------------------------------------------------------------------------
On 04/05/2017 7:05:04 PM,
Message: IndeedSSO_User NOT NULL Master Page
-------------------------------------------------------------------------------
On 04/05/2017 7:05:04 PM,
Message: User Session NOT NULL rony@indeed.com
-------------------------------------------------------------------------------
On 04/05/2017 7:05:41 PM,
Message: IndeedSSO_User NOT NULL Master Page
-------------------------------------------------------------------------------
On 04/05/2017 7:05:41 PM,
Message: User Session NOT NULL rony@indeed.com
-------------------------------------------------------------------------------
On 04/05/2017 7:05:48 PM,
Message: IndeedSSO_User NOT NULL Master Page
-------------------------------------------------------------------------------
On 04/05/2017 7:05:48 PM,
Message: User Session NOT NULL rony@indeed.com
-------------------------------------------------------------------------------
On 04/05/2017 7:06:35 PM,
Message: IndeedSSO_User NOT NULL Master Page
-------------------------------------------------------------------------------
On 04/05/2017 7:06:35 PM,
Message: User Session NOT NULL rony@indeed.com
-------------------------------------------------------------------------------
On 04/05/2017 7:08:48 PM,
Message: IndeedSSO_User NOT NULL Master Page
-------------------------------------------------------------------------------
On 04/05/2017 7:08:48 PM,
Message: User Session NOT NULL rony@indeed.com
-------------------------------------------------------------------------------
On 04/05/2017 7:09:05 PM,
Message: IndeedSSO_User NOT NULL Master Page
-------------------------------------------------------------------------------
On 04/05/2017 7:09:05 PM,
Message: User Session NOT NULL rony@indeed.com
-------------------------------------------------------------------------------
On 04/05/2017 7:09:36 PM,
Message: IndeedSSO_User NOT NULL Master Page
-------------------------------------------------------------------------------
On 04/05/2017 7:09:36 PM,
Message: User Session NOT NULL rony@indeed.com
-------------------------------------------------------------------------------
