On 04/04/2017 1:08:16 PM,
Message: ---INSIDE PAGE LOAD OF INDEED_SSOLogs LOGIN--- 
-------------------------------------------------------------------------------
On 04/04/2017 1:08:16 PM,
Message: ---INSIDE SETUPREQUEST INDEED_SSOLogs LOGIN PAGE--- 
-------------------------------------------------------------------------------
On 04/04/2017 1:08:16 PM,
Message: AFTER BINDING RESOURCES
-------------------------------------------------------------------------------
On 04/04/2017 1:08:16 PM,
Message: ---INSIDE SETUPREQUEST  POWERWEAVE USER--- 
-------------------------------------------------------------------------------
On 04/04/2017 1:08:16 PM,
Message: Employee_ID : IND0000002
-------------------------------------------------------------------------------
On 04/04/2017 1:08:16 PM,
Message: InsertUpdateEmployeeSAML Successfully
-------------------------------------------------------------------------------
On 04/04/2017 1:08:16 PM,
Message: Ship_To_Location : DE
-------------------------------------------------------------------------------
On 04/04/2017 1:08:16 PM,
Message: IndeedInvoiceAccointID : 1331165
-------------------------------------------------------------------------------
On 04/04/2017 1:08:16 PM,
Message: Inside TRY
-------------------------------------------------------------------------------
On 04/04/2017 1:08:16 PM,
Message: IndeedSSO_User : True
-------------------------------------------------------------------------------
On 04/04/2017 1:08:17 PM,
Message: BEFORE CALLING UserBL.ChkEmployeeExists
-------------------------------------------------------------------------------
On 04/04/2017 1:08:17 PM,
Message: AFTER CALLING UserBL.ChkEmployeeExists
-------------------------------------------------------------------------------
On 04/04/2017 1:08:17 PM,
Message: INSIDE IF UserExistInBASYS == 0
-------------------------------------------------------------------------------
On 04/04/2017 1:08:17 PM,
Message: BEFORE CALLING UserBL.GetIndeedSSOUserDetails
-------------------------------------------------------------------------------
On 04/04/2017 1:08:17 PM,
Message: AFTER CALLING UserBL.GetIndeedSSOUserDetails
-------------------------------------------------------------------------------
On 04/04/2017 1:08:17 PM,
Message: BEFORE CALLING UserBL.ChkUserExists
-------------------------------------------------------------------------------
On 04/04/2017 1:08:17 PM,
Message: AFTER CALLING UserBL.ChkUserExists
-------------------------------------------------------------------------------
On 04/04/2017 1:08:17 PM,
Message: AFTER CALLING GetAllCountryCurrencyMapping
-------------------------------------------------------------------------------
On 04/04/2017 1:08:17 PM,
Message: AFTER CREATING UserCatalogueID Session
-------------------------------------------------------------------------------
On 04/04/2017 1:08:17 PM,
Message: INSIDE IF UserExistInStore == 1
-------------------------------------------------------------------------------
On 04/04/2017 1:08:17 PM,
Message: BEFORE UserBL.UpdateReferrelUserTypeId
-------------------------------------------------------------------------------
On 04/04/2017 1:08:18 PM,
Message: AFTER UserBL.UpdateReferrelUserTypeId
-------------------------------------------------------------------------------
On 04/04/2017 1:08:18 PM,
Message: BEFORE UserBL.GetSingleObjectDetails
-------------------------------------------------------------------------------
On 04/04/2017 1:08:18 PM,
Message: AFTER UserBL.GetSingleObjectDetails
-------------------------------------------------------------------------------
On 04/04/2017 1:08:22 PM,
Message: BEFORE calling Login_UserLogin.UpdateBasketSessionProducts()
-------------------------------------------------------------------------------
On 04/04/2017 1:08:22 PM,
Message: AFTER calling Login_UserLogin.UpdateBasketSessionProducts()
-------------------------------------------------------------------------------
On 04/04/2017 1:08:22 PM,
Message: User Email = rony@indeed.com
-------------------------------------------------------------------------------
On 04/04/2017 1:08:23 PM,
Message: User Session NOT NULL rony@indeed.com
-------------------------------------------------------------------------------
On 04/04/2017 1:08:23 PM,
Message: IndeedSSO_User NOT NULL rony@indeed.com
-------------------------------------------------------------------------------
On 04/04/2017 1:08:23 PM,
Message: User Email in Index page load = rony@indeed.com
-------------------------------------------------------------------------------
On 04/04/2017 1:08:27 PM,
Message: IndeedSSO_User NOT NULL Master Page
-------------------------------------------------------------------------------
On 04/04/2017 1:08:27 PM,
Message: User Session NOT NULL rony@indeed.com
-------------------------------------------------------------------------------
On 04/04/2017 1:08:46 PM,
Message: IndeedSSO_User NOT NULL Master Page
-------------------------------------------------------------------------------
On 04/04/2017 1:08:46 PM,
Message: User Session NOT NULL rony@indeed.com
-------------------------------------------------------------------------------
On 04/04/2017 1:09:05 PM,
Message: IndeedSSO_User NOT NULL Master Page
-------------------------------------------------------------------------------
On 04/04/2017 1:09:05 PM,
Message: User Session NOT NULL rony@indeed.com
-------------------------------------------------------------------------------
On 04/04/2017 1:11:26 PM,
Message: IndeedSSO_User NOT NULL Master Page
-------------------------------------------------------------------------------
On 04/04/2017 1:11:26 PM,
Message: User Session NOT NULL rony@indeed.com
-------------------------------------------------------------------------------
On 04/04/2017 1:11:33 PM,
Message: IndeedSSO_User NOT NULL Master Page
-------------------------------------------------------------------------------
On 04/04/2017 1:11:33 PM,
Message: User Session NOT NULL rony@indeed.com
-------------------------------------------------------------------------------
On 04/04/2017 2:51:14 PM,
Message: IndeedSSO_User NOT NULL Master Page
-------------------------------------------------------------------------------
On 04/04/2017 2:51:14 PM,
Message: User Session NOT NULL rony@indeed.com
-------------------------------------------------------------------------------
On 04/04/2017 2:51:14 PM,
Message: IndeedSSO_User NOT NULL Master Page
-------------------------------------------------------------------------------
On 04/04/2017 2:51:14 PM,
Message: User Session NOT NULL rony@indeed.com
-------------------------------------------------------------------------------
On 04/04/2017 5:42:02 PM,
Message: User Session NOT NULL LarryTestUser@brandaddition.com
-------------------------------------------------------------------------------
On 04/04/2017 5:42:08 PM,
Message: User Session NOT NULL LarryTestUser@brandaddition.com
-------------------------------------------------------------------------------
On 04/04/2017 5:42:10 PM,
Message: User Session NOT NULL LarryTestUser@brandaddition.com
-------------------------------------------------------------------------------
On 04/04/2017 5:52:33 PM,
Message: User Session NOT NULL LarryTestUser@brandaddition.com
-------------------------------------------------------------------------------
On 04/04/2017 6:00:24 PM,
Message: User Session NOT NULL LarryTestUser@brandaddition.com
-------------------------------------------------------------------------------
On 04/04/2017 18:01:23,
Message: User Session NOT NULL LarryTestUser@brandaddition.com
-------------------------------------------------------------------------------
On 04/04/2017 18:01:51,
Message: User Session NOT NULL LarryTestUser@brandaddition.com
-------------------------------------------------------------------------------
On 04/04/2017 18:02:12,
Message: User Session NOT NULL LarryTestUser@brandaddition.com
-------------------------------------------------------------------------------
On 04/04/2017 6:02:43 PM,
Message: User Session NOT NULL LarryTestUser@brandaddition.com
-------------------------------------------------------------------------------
On 04/04/2017 18:02:50,
Message: User Session NOT NULL LarryTestUser@brandaddition.com
-------------------------------------------------------------------------------
On 04/04/2017 18:03:31,
Message: User Session NOT NULL LarryTestUser@brandaddition.com
-------------------------------------------------------------------------------
On 04/04/2017 6:42:24 PM,
Message: User Session NOT NULL LarryTestUser@brandaddition.com
-------------------------------------------------------------------------------
On 04/04/2017 6:42:31 PM,
Message: User Session NOT NULL LarryTestUser@brandaddition.com
-------------------------------------------------------------------------------
On 04/04/2017 6:42:33 PM,
Message: User Session NOT NULL LarryTestUser@brandaddition.com
-------------------------------------------------------------------------------
On 04/04/2017 6:43:19 PM,
Message: User Session NOT NULL LarryTestUser@brandaddition.com
-------------------------------------------------------------------------------
On 04/04/2017 6:43:59 PM,
Message: User Session NOT NULL LarryTestUser@brandaddition.com
-------------------------------------------------------------------------------
On 04/04/2017 6:44:18 PM,
Message: User Session NOT NULL LarryTestUser@brandaddition.com
-------------------------------------------------------------------------------
On 04/04/2017 6:44:26 PM,
Message: User Session NOT NULL LarryTestUser@brandaddition.com
-------------------------------------------------------------------------------
On 04/04/2017 6:44:51 PM,
Message: User Session NOT NULL LarryTestUser@brandaddition.com
-------------------------------------------------------------------------------
On 04/04/2017 6:45:34 PM,
Message: User Session NOT NULL LarryTestUser@brandaddition.com
-------------------------------------------------------------------------------
On 04/04/2017 6:45:39 PM,
Message: User Session NOT NULL LarryTestUser@brandaddition.com
-------------------------------------------------------------------------------
On 04/04/2017 6:45:41 PM,
Message: User Session NOT NULL LarryTestUser@brandaddition.com
-------------------------------------------------------------------------------
On 04/04/2017 6:46:20 PM,
Message: User Session NOT NULL LarryTestUser@brandaddition.com
-------------------------------------------------------------------------------
On 04/04/2017 6:46:32 PM,
Message: User Session NOT NULL LarryTestUser@brandaddition.com
-------------------------------------------------------------------------------
On 04/04/2017 6:46:47 PM,
Message: User Session NOT NULL LarryTestUser@brandaddition.com
-------------------------------------------------------------------------------
On 04/04/2017 6:46:54 PM,
Message: User Session NOT NULL LarryTestUser@brandaddition.com
-------------------------------------------------------------------------------
On 04/04/2017 6:47:12 PM,
Message: User Session NOT NULL LarryTestUser@brandaddition.com
-------------------------------------------------------------------------------
On 04/04/2017 6:47:31 PM,
Message: User Session NOT NULL LarryTestUser@brandaddition.com
-------------------------------------------------------------------------------
On 04/04/2017 6:48:34 PM,
Message: User Session NOT NULL LarryTestUser@brandaddition.com
-------------------------------------------------------------------------------
On 04/04/2017 6:55:00 PM,
Message: User Session NOT NULL LarryTestUser@brandaddition.com
-------------------------------------------------------------------------------
On 04/04/2017 7:04:30 PM,
Message: User Session NOT NULL LarryTestUser@brandaddition.com
-------------------------------------------------------------------------------
On 04/04/2017 7:04:45 PM,
Message: User Session NOT NULL LarryTestUser@brandaddition.com
-------------------------------------------------------------------------------
On 04/04/2017 7:04:56 PM,
Message: User Session NOT NULL LarryTestUser@brandaddition.com
-------------------------------------------------------------------------------
On 04/04/2017 7:05:02 PM,
Message: User Session NOT NULL LarryTestUser@brandaddition.com
-------------------------------------------------------------------------------
On 04/04/2017 7:05:26 PM,
Message: User Session NOT NULL LarryTestUser@brandaddition.com
-------------------------------------------------------------------------------
On 04/04/2017 7:06:21 PM,
Message: User Session NOT NULL LarryTestUser@brandaddition.com
-------------------------------------------------------------------------------
On 04/04/2017 7:06:39 PM,
Message: User Session NOT NULL LarryTestUser@brandaddition.com
-------------------------------------------------------------------------------
On 04/04/2017 7:07:06 PM,
Message: User Session NOT NULL LarryTestUser@brandaddition.com
-------------------------------------------------------------------------------
On 04/04/2017 7:10:33 PM,
Message: User Session NOT NULL LarryTestUser@brandaddition.com
-------------------------------------------------------------------------------
On 04/04/2017 7:14:54 PM,
Message: User Session NOT NULL LarryTestUser@brandaddition.com
-------------------------------------------------------------------------------
On 04/04/2017 7:15:01 PM,
Message: User Session NOT NULL LarryTestUser@brandaddition.com
-------------------------------------------------------------------------------
On 04/04/2017 7:15:04 PM,
Message: User Session NOT NULL LarryTestUser@brandaddition.com
-------------------------------------------------------------------------------
On 04/04/2017 7:15:20 PM,
Message: User Session NOT NULL LarryTestUser@brandaddition.com
-------------------------------------------------------------------------------
On 04/04/2017 7:15:34 PM,
Message: User Session NOT NULL LarryTestUser@brandaddition.com
-------------------------------------------------------------------------------
On 04/04/2017 7:16:11 PM,
Message: User Session NOT NULL LarryTestUser@brandaddition.com
-------------------------------------------------------------------------------
On 04/04/2017 7:16:20 PM,
Message: User Session NOT NULL LarryTestUser@brandaddition.com
-------------------------------------------------------------------------------
On 04/04/2017 7:16:38 PM,
Message: User Session NOT NULL LarryTestUser@brandaddition.com
-------------------------------------------------------------------------------
On 04/04/2017 7:17:40 PM,
Message: User Session NOT NULL LarryTestUser@brandaddition.com
-------------------------------------------------------------------------------
