On 04/19/2017 7:20:42 PM,
Message: User Session NOT NULL tripti.shukla@powerweave.com
-------------------------------------------------------------------------------
On 04/19/2017 7:20:42 PM,
Message: User Session NOT NULL tripti.shukla@powerweave.com
-------------------------------------------------------------------------------
On 04/19/2017 7:21:30 PM,
Message: User Session NOT NULL tripti.shukla@powerweave.com
-------------------------------------------------------------------------------
On 04/19/2017 7:21:31 PM,
Message: User Session NOT NULL tripti.shukla@powerweave.com
-------------------------------------------------------------------------------
On 04/19/2017 7:47:26 PM,
Message: User Session NOT NULL tripti.shukla@powerweave.com
-------------------------------------------------------------------------------
On 04/19/2017 7:47:27 PM,
Message: User Session NOT NULL tripti.shukla@powerweave.com
-------------------------------------------------------------------------------
On 04/19/2017 7:47:41 PM,
Message: User Session NOT NULL tripti.shukla@powerweave.com
-------------------------------------------------------------------------------
On 04/19/2017 7:48:10 PM,
Message: User Session NOT NULL tripti.shukla@powerweave.com
-------------------------------------------------------------------------------
