On 1/25/2017 6:03:39 PM,
Message: ---INSIDE PAGE LOAD OF MAERSK OIL SSO LOGIN--- 
-------------------------------------------------------------------------------
On 1/25/2017 6:03:39 PM,
Message: ---INSIDE SETUPREQUEST  MAERSK OIL SSO LOGIN PAGE--- 
-------------------------------------------------------------------------------
On 1/25/2017 6:03:39 PM,
Message: ---INSIDE SETUPREQUEST  POWERWEAVE USER--- 
-------------------------------------------------------------------------------
On 1/25/2017 6:03:39 PM,
Message: emailaddress : shriganesh.singh_oil@powerweave.com
-------------------------------------------------------------------------------
On 1/25/2017 6:03:39 PM,
Message: givenname : shriganesh
-------------------------------------------------------------------------------
On 1/25/2017 6:03:39 PM,
Message: surname : singh_oil
-------------------------------------------------------------------------------
On 1/25/2017 6:03:39 PM,
Message: displayname : Shriganesh Singh_Oil
-------------------------------------------------------------------------------
On 1/25/2017 6:03:39 PM,
Message: identityprovider : https://cam.maerskoil.com/CloudAccessManager/RPSTS/Saml2/Default.aspx
-------------------------------------------------------------------------------
On 1/25/2017 6:03:50 PM,
Message: User Email ID : shriganesh.singh_oil@powerweave.com
-------------------------------------------------------------------------------
On 1/25/2017 6:03:50 PM,
Message: IsGuestUser : False
-------------------------------------------------------------------------------
On 1/25/2017 6:03:50 PM,
Message: First Name : shriganesh
-------------------------------------------------------------------------------
On 1/25/2017 6:03:50 PM,
Message: Before calling Login_UserLogin.UpdateBasketSessionProducts() in SetUpRequest
-------------------------------------------------------------------------------
On 1/25/2017 6:03:51 PM,
Message: Before calling Login_UserLogin.UpdateBasketSessionProducts() in SetUpRequest
-------------------------------------------------------------------------------
On 1/25/2017 6:03:51 PM,
Message: Before redirecting to INDEX for ELSE from SetUpRequest
-------------------------------------------------------------------------------
On 1/25/2017 6:07:06 PM,
Message: inside Maersk_SSO_OIL_User != null LINK URL = http://localhost:7482/QuickShop/QuickShop
-------------------------------------------------------------------------------
On 1/25/2017 6:07:06 PM,
Message: inside Maersk_SSO_OIL_User != null LINK URL = http://localhost:7482/MyAccount/Profile
-------------------------------------------------------------------------------
On 1/25/2017 6:07:06 PM,
Message: inside Maersk_SSO_OIL_User != null LINK URL = http://localhost:7482/MyAccount/OrderHistory
-------------------------------------------------------------------------------
On 1/25/2017 6:07:06 PM,
Message: inside Maersk_SSO_OIL_User != null LINK URL = http://localhost:7482/Signout
-------------------------------------------------------------------------------
On 1/25/2017 6:11:43 PM,
Message: inside Maersk_SSO_OIL_User != null LINK URL = http://localhost:7482/QuickShop/QuickShop
-------------------------------------------------------------------------------
On 1/25/2017 6:12:24 PM,
Message: inside Maersk_SSO_OIL_User != null LINK URL = http://localhost:7482/MyAccount/Profile
-------------------------------------------------------------------------------
On 1/25/2017 6:13:04 PM,
Message: inside Maersk_SSO_OIL_User != null LINK URL = http://localhost:7482/MyAccount/OrderHistory
-------------------------------------------------------------------------------
On 1/25/2017 6:13:25 PM,
Message: inside Maersk_SSO_OIL_User != null LINK URL = http://localhost:7482/Signout
-------------------------------------------------------------------------------
On 1/25/2017 6:22:04 PM,
Message: inside Maersk_SSO_OIL_User != null LINK URL = http://localhost:7482/QuickShop/QuickShop
-------------------------------------------------------------------------------
On 1/25/2017 6:22:04 PM,
Message: inside Maersk_SSO_OIL_User != null LINK URL = http://localhost:7482/MyAccount/Profile
-------------------------------------------------------------------------------
On 1/25/2017 6:22:04 PM,
Message: inside Maersk_SSO_OIL_User != null LINK URL = http://localhost:7482/MyAccount/OrderHistory
-------------------------------------------------------------------------------
On 1/25/2017 6:22:04 PM,
Message: inside Maersk_SSO_OIL_User != null LINK URL = http://localhost:7482/Signout
-------------------------------------------------------------------------------
On 1/25/2017 6:22:37 PM,
Message: inside Maersk_SSO_OIL_User != null PFOFILE PAGE LOAD
-------------------------------------------------------------------------------
On 1/25/2017 6:22:54 PM,
Message: inside Maersk_SSO_OIL_User != null LINK URL = http://localhost:7482/QuickShop/QuickShop
-------------------------------------------------------------------------------
On 1/25/2017 6:22:54 PM,
Message: inside Maersk_SSO_OIL_User != null LINK URL = http://localhost:7482/MyAccount/Profile
-------------------------------------------------------------------------------
On 1/25/2017 6:22:54 PM,
Message: inside Maersk_SSO_OIL_User != null LINK URL = http://localhost:7482/MyAccount/OrderHistory
-------------------------------------------------------------------------------
On 1/25/2017 6:22:54 PM,
Message: inside Maersk_SSO_OIL_User != null LINK URL = http://localhost:7482/Signout
-------------------------------------------------------------------------------
