

-----------------------05/09/2017 2:28:08 PM--------------------------------------
sanchit.patne@powerweave.com has Logged-In Control Panel from the IP 172.20.4.12
-----------------------End-------------------------------------------------------------


-----------------------05/09/2017 2:29:55 PM---------------------------------------------------------
sanchit.patne@powerweave.com has Add SEK in the AddCatalogue btnAdd from  IP 172.20.4.12
-----------------------End--------------------------------------------------------------------------


-----------------------05/09/2017 3:41:54 PM---------------------------------------------------------
sanchit.patne@powerweave.com has Insert System.Web.UI.WebControls.Label_Nissan Europe_0 in the AddCatalogue OnClickSave from  IP 172.20.4.12
-----------------------End--------------------------------------------------------------------------


-----------------------05/09/2017 3:45:51 PM--------------------------------------
sanchit.patne@powerweave.com has Logged-In Control Panel from the IP 172.20.4.12
-----------------------End-------------------------------------------------------------


-----------------------05/09/2017 3:46:27 PM---------------------------------------------------------
sanchit.patne@powerweave.com has Add SEK in the AddCatalogue btnAdd from  IP 172.20.4.12
-----------------------End--------------------------------------------------------------------------


-----------------------05/09/2017 3:49:45 PM---------------------------------------------------------
sanchit.patne@powerweave.com has Insert System.Web.UI.WebControls.Label_Nissan Europe_0 in the AddCatalogue OnClickSave from  IP 172.20.4.12
-----------------------End--------------------------------------------------------------------------
